c Standarized MaxSat Instance
c{
c "sha1sum": "467901ae276c448665f9f929d25d1aa2fecf65c0",
c "nvars": 604,
c "ncls": 2107,
c "total_lits": 4298,
c "nhards": 205,
c "nhard_nlits": 604,
c "nhard_len_stats":
c    { "min": 2,
c      "max": 4,
c      "ave": 2.9463,
c      "stddev": 0.8276 },
c "nsofts": 1902,
c "nsoft_nlits": 3694,
c "nsoft_len_stats":
c    { "min": 1,
c      "max": 2,
c      "ave": 1.9422,
c      "stddev": 0.2334 },
c "nsoft_wts": 1469,
c "soft_wt_stats":
c    { "min": 6,
c      "max": 12439,
c      "ave": 1982.0626,
c      "stddev": 1327.1250 }
c}
c------------------------------------------------------------
c 1 WF='a'
c 2 WF='b'
c 3 WF='c'
c 4 XF='a'
c 5 XF='b'
c 6 XF='c'
c 7 XD='a'
c 8 XD='b'
c 9 XD='c'
c 10 YF='a'
c 11 YF='b'
c 12 VB='a'
c 13 VB='b'
c 14 YD='a'
c 15 YD='b'
c 16 YD='c'
c 17 YD='d'
c 18 ZF='a'
c 19 ZF='b'
c 20 GF='a'
c 21 GF='b'
c 22 GF='c'
c 23 WB='a'
c 24 WB='b'
c 25 ZD='a'
c 26 ZD='b'
c 27 ZD='c'
c 28 ZD='d'
c 29 AG='a'
c 30 AG='b'
c 31 AG='c'
c 32 UG='a'
c 33 UG='b'
c 34 UG='c'
c 35 XB='a'
c 36 XB='b'
c 37 XB='c'
c 38 AE='a'
c 39 AE='b'
c 40 AE='c'
c 41 AE='d'
c 42 JB='a'
c 43 JB='b'
c 44 JB='c'
c 45 YB='a'
c 46 YB='b'
c 47 YB='c'
c 48 I='a'
c 49 I='b'
c 50 I='c'
c 51 TH='a'
c 52 TH='b'
c 53 TH='c'
c 54 TH='d'
c 55 J='a'
c 56 J='b'
c 57 J='c'
c 58 J='d'
c 59 HB='a'
c 60 HB='b'
c 61 HB='c'
c 62 HB='d'
c 63 K='a'
c 64 K='b'
c 65 K='c'
c 66 HI='a'
c 67 HI='b'
c 68 HI='c'
c 69 HI='d'
c 70 L='a'
c 71 L='b'
c 72 L='c'
c 73 L='d'
c 74 A='a'
c 75 A='b'
c 76 A='c'
c 77 A='d'
c 78 M='a'
c 79 M='b'
c 80 M='c'
c 81 S='a'
c 82 S='b'
c 83 S='c'
c 84 B='a'
c 85 B='b'
c 86 B='c'
c 87 T='a'
c 88 T='b'
c 89 II='a'
c 90 II='b'
c 91 II='c'
c 92 II='d'
c 93 C='a'
c 94 C='b'
c 95 C='c'
c 96 C='d'
c 97 U='a'
c 98 U='b'
c 99 U='c'
c 100 QI='a'
c 101 QI='b'
c 102 JI='a'
c 103 JI='b'
c 104 JI='c'
c 105 JI='d'
c 106 D='a'
c 107 D='b'
c 108 D='c'
c 109 V='a'
c 110 V='b'
c 111 V='c'
c 112 YG='a'
c 113 YG='b'
c 114 YG='c'
c 115 YG='d'
c 116 KI='a'
c 117 KI='b'
c 118 KI='c'
c 119 KI='d'
c 120 E='a'
c 121 E='b'
c 122 E='c'
c 123 E='d'
c 124 W='a'
c 125 W='b'
c 126 W='c'
c 127 WG='a'
c 128 WG='b'
c 129 ZG='a'
c 130 ZG='b'
c 131 ZG='c'
c 132 ZG='d'
c 133 LI='a'
c 134 LI='b'
c 135 F='a'
c 136 F='b'
c 137 F='c'
c 138 F='d'
c 139 X='a'
c 140 X='b'
c 141 DE='a'
c 142 DE='b'
c 143 DE='c'
c 144 MI='a'
c 145 MI='b'
c 146 G='a'
c 147 G='b'
c 148 G='c'
c 149 Y='a'
c 150 Y='b'
c 151 Y='c'
c 152 Y='d'
c 153 EE='a'
c 154 EE='b'
c 155 EE='c'
c 156 O='a'
c 157 O='b'
c 158 NI='a'
c 159 NI='b'
c 160 Z='a'
c 161 Z='b'
c 162 Z='c'
c 163 Z='d'
c 164 FE='a'
c 165 FE='b'
c 166 FE='c'
c 167 P='a'
c 168 P='b'
c 169 P='c'
c 170 P='d'
c 171 CG='a'
c 172 CG='b'
c 173 OI='a'
c 174 OI='b'
c 175 OI='c'
c 176 GE='a'
c 177 GE='b'
c 178 GE='c'
c 179 GE='d'
c 180 Q='a'
c 181 Q='b'
c 182 Q='c'
c 183 DG='a'
c 184 DG='b'
c 185 DG='c'
c 186 GB='a'
c 187 GB='b'
c 188 GB='c'
c 189 EG='a'
c 190 EG='b'
c 191 BH='a'
c 192 BH='b'
c 193 BH='c'
c 194 FG='a'
c 195 FG='b'
c 196 FG='c'
c 197 BB='a'
c 198 BB='b'
c 199 BB='c'
c 200 GG='a'
c 201 GG='b'
c 202 MB='a'
c 203 MB='b'
c 204 CB='a'
c 205 CB='b'
c 206 CB='c'
c 207 CB='d'
c 208 HG='a'
c 209 HG='b'
c 210 HG='c'
c 211 HG='d'
c 212 ZI='a'
c 213 ZI='b'
c 214 ZI='c'
c 215 NB='a'
c 216 NB='b'
c 217 DB='a'
c 218 DB='b'
c 219 DB='c'
c 220 DB='d'
c 221 IG='a'
c 222 IG='b'
c 223 IG='c'
c 224 AC='a'
c 225 AC='b'
c 226 AJ='a'
c 227 AJ='b'
c 228 AJ='c'
c 229 OB='a'
c 230 OB='b'
c 231 OB='c'
c 232 OB='d'
c 233 EB='a'
c 234 EB='b'
c 235 EB='c'
c 236 JG='a'
c 237 JG='b'
c 238 JG='c'
c 239 JG='d'
c 240 EI='a'
c 241 EI='b'
c 242 BC='a'
c 243 BC='b'
c 244 BJ='a'
c 245 BJ='b'
c 246 BJ='c'
c 247 BJ='d'
c 248 KG='a'
c 249 KG='b'
c 250 KG='c'
c 251 QB='a'
c 252 QB='b'
c 253 QB='c'
c 254 FI='a'
c 255 FI='b'
c 256 CC='a'
c 257 CC='b'
c 258 CC='c'
c 259 CC='d'
c 260 CJ='a'
c 261 CJ='b'
c 262 LG='a'
c 263 LG='b'
c 264 NG='a'
c 265 NG='b'
c 266 NG='c'
c 267 NG='d'
c 268 RB='a'
c 269 RB='b'
c 270 DC='a'
c 271 DC='b'
c 272 DC='c'
c 273 DC='d'
c 274 DJ='a'
c 275 DJ='b'
c 276 NH='a'
c 277 NH='b'
c 278 NH='c'
c 279 NH='d'
c 280 SB='a'
c 281 SB='b'
c 282 SB='c'
c 283 EC='a'
c 284 EC='b'
c 285 EC='c'
c 286 EJ='a'
c 287 EJ='b'
c 288 EJ='c'
c 289 HF='a'
c 290 HF='b'
c 291 HF='c'
c 292 HF='d'
c 293 OH='a'
c 294 OH='b'
c 295 OH='c'
c 296 OH='d'
c 297 TB='a'
c 298 TB='b'
c 299 FC='a'
c 300 FC='b'
c 301 SI='a'
c 302 SI='b'
c 303 SI='c'
c 304 SI='d'
c 305 IF='a'
c 306 IF='b'
c 307 PH='a'
c 308 PH='b'
c 309 PH='c'
c 310 GC='a'
c 311 GC='b'
c 312 GC='c'
c 313 TI='a'
c 314 TI='b'
c 315 XI='a'
c 316 XI='b'
c 317 XI='c'
c 318 XI='d'
c 319 JF='a'
c 320 JF='b'
c 321 JF='c'
c 322 QH='a'
c 323 QH='b'
c 324 QH='c'
c 325 HC='a'
c 326 HC='b'
c 327 HC='c'
c 328 UI='a'
c 329 UI='b'
c 330 UI='c'
c 331 UI='d'
c 332 CH='a'
c 333 CH='b'
c 334 CH='c'
c 335 KF='a'
c 336 KF='b'
c 337 KF='c'
c 338 KF='d'
c 339 RH='a'
c 340 RH='b'
c 341 RH='c'
c 342 IC='a'
c 343 IC='b'
c 344 VI='a'
c 345 VI='b'
c 346 VI='c'
c 347 VI='d'
c 348 DH='a'
c 349 DH='b'
c 350 DH='c'
c 351 DH='d'
c 352 CE='a'
c 353 CE='b'
c 354 CE='c'
c 355 CE='d'
c 356 JC='a'
c 357 JC='b'
c 358 JC='c'
c 359 EH='a'
c 360 EH='b'
c 361 EH='c'
c 362 LB='a'
c 363 LB='b'
c 364 LB='c'
c 365 LB='d'
c 366 KC='a'
c 367 KC='b'
c 368 FH='a'
c 369 FH='b'
c 370 FH='c'
c 371 MF='a'
c 372 MF='b'
c 373 MF='c'
c 374 LC='a'
c 375 LC='b'
c 376 LC='c'
c 377 LC='d'
c 378 GH='a'
c 379 GH='b'
c 380 GH='c'
c 381 GH='d'
c 382 RG='a'
c 383 RG='b'
c 384 NF='a'
c 385 NF='b'
c 386 MC='a'
c 387 MC='b'
c 388 MC='c'
c 389 HH='a'
c 390 HH='b'
c 391 HH='c'
c 392 IE='a'
c 393 IE='b'
c 394 SG='a'
c 395 SG='b'
c 396 OF='a'
c 397 OF='b'
c 398 NC='a'
c 399 NC='b'
c 400 NC='c'
c 401 IH='a'
c 402 IH='b'
c 403 IH='c'
c 404 JE='a'
c 405 JE='b'
c 406 JD='a'
c 407 JD='b'
c 408 PF='a'
c 409 PF='b'
c 410 OC='a'
c 411 OC='b'
c 412 JH='a'
c 413 JH='b'
c 414 KE='a'
c 415 KE='b'
c 416 KE='c'
c 417 KE='d'
c 418 OG='a'
c 419 OG='b'
c 420 OG='c'
c 421 OG='d'
c 422 KD='a'
c 423 KD='b'
c 424 KD='c'
c 425 KD='d'
c 426 QF='a'
c 427 QF='b'
c 428 QF='c'
c 429 PC='a'
c 430 PC='b'
c 431 KH='a'
c 432 KH='b'
c 433 LE='a'
c 434 LE='b'
c 435 PG='a'
c 436 PG='b'
c 437 PG='c'
c 438 PG='d'
c 439 WC='a'
c 440 WC='b'
c 441 WC='c'
c 442 LD='a'
c 443 LD='b'
c 444 LD='c'
c 445 LD='d'
c 446 RF='a'
c 447 RF='b'
c 448 RF='c'
c 449 QC='a'
c 450 QC='b'
c 451 LH='a'
c 452 LH='b'
c 453 ME='a'
c 454 ME='b'
c 455 VH='a'
c 456 VH='b'
c 457 VH='c'
c 458 VH='d'
c 459 XC='a'
c 460 XC='b'
c 461 XC='c'
c 462 XC='d'
c 463 MD='a'
c 464 MD='b'
c 465 MD='c'
c 466 SF='a'
c 467 SF='b'
c 468 RC='a'
c 469 RC='b'
c 470 NE='a'
c 471 NE='b'
c 472 NE='c'
c 473 NE='d'
c 474 WH='a'
c 475 WH='b'
c 476 YC='a'
c 477 YC='b'
c 478 YC='c'
c 479 YC='d'
c 480 ND='a'
c 481 ND='b'
c 482 TF='a'
c 483 TF='b'
c 484 SC='a'
c 485 SC='b'
c 486 OE='a'
c 487 OE='b'
c 488 XH='a'
c 489 XH='b'
c 490 XH='c'
c 491 XH='d'
c 492 ZC='a'
c 493 ZC='b'
c 494 ZC='c'
c 495 ZC='d'
c 496 OD='a'
c 497 OD='b'
c 498 UF='a'
c 499 UF='b'
c 500 UF='c'
c 501 TC='a'
c 502 TC='b'
c 503 TC='c'
c 504 PE='a'
c 505 PE='b'
c 506 YH='a'
c 507 YH='b'
c 508 AD='a'
c 509 AD='b'
c 510 AD='c'
c 511 AD='d'
c 512 PD='a'
c 513 PD='b'
c 514 UC='a'
c 515 UC='b'
c 516 QE='a'
c 517 QE='b'
c 518 ZH='a'
c 519 ZH='b'
c 520 BD='a'
c 521 BD='b'
c 522 BD='c'
c 523 QD='a'
c 524 QD='b'
c 525 RE='a'
c 526 RE='b'
c 527 RE='c'
c 528 RE='d'
c 529 AI='a'
c 530 AI='b'
c 531 CD='a'
c 532 CD='b'
c 533 CD='c'
c 534 CD='d'
c 535 RD='a'
c 536 RD='b'
c 537 RD='c'
c 538 SE='a'
c 539 SE='b'
c 540 BI='a'
c 541 BI='b'
c 542 DD='a'
c 543 DD='b'
c 544 SD='a'
c 545 SD='b'
c 546 TE='a'
c 547 TE='b'
c 548 CI='a'
c 549 CI='b'
c 550 CI='c'
c 551 CI='d'
c 552 ED='a'
c 553 ED='b'
c 554 TD='a'
c 555 TD='b'
c 556 UE='a'
c 557 UE='b'
c 558 UE='c'
c 559 UE='d'
c 560 FD='a'
c 561 FD='b'
c 562 FD='c'
c 563 UD='a'
c 564 UD='b'
c 565 UD='c'
c 566 UD='d'
c 567 VE='a'
c 568 VE='b'
c 569 VE='c'
c 570 VE='d'
c 571 GD='a'
c 572 GD='b'
c 573 VD='a'
c 574 VD='b'
c 575 VD='c'
c 576 WE='a'
c 577 WE='b'
c 578 WE='c'
c 579 WE='d'
c 580 HD='a'
c 581 HD='b'
c 582 XE='a'
c 583 XE='b'
c 584 XE='c'
c 585 XE='d'
c 586 YE='a'
c 587 YE='b'
c 588 ZE='a'
c 589 ZE='b'
c 590 ZE='c'
c 591 ZE='d'
c 592 AF='a'
c 593 AF='b'
c 594 BF='a'
c 595 BF='b'
c 596 CF='a'
c 597 CF='b'
c 598 CF='c'
c 599 DF='a'
c 600 DF='b'
c 601 DF='c'
c 602 DF='d'
c 603 EF='a'
c 604 EF='b'
c e TG='b'
c e YI='b'
c e VC='c'
c e H='a'
c e VF='a'
c e BE='b'
c e QG='b'
c e AB='b'
c e HE='a'
c e WD='b'
c e AH='c'
c e DI='d'
c e VG='a'
c e ID='b'
c e ZB='a'
c e MG='c'
c e LF='a'
c e R='a'
c e RI='c'
c e WI='d'
c e KB='b'
c e SH='b'
c e GI='b'
c e XG='a'
c e N='a'
c e FB='b'
c e PI='a'
c e BG='d'
c e FJ='b'
c e MH='c'
c e UB='a'
c e IB='b'
c e UH='b'
c e PB='c'
c e FF='a'
609 -1 0
1574 -2 0
6831 -3 0
4494 -1 -4 0
518 -1 -5 0
1958 -1 -6 0
1849 -2 -4 0
1517 -2 -5 0
1422 -2 -6 0
1789 -3 -4 0
1741 -3 -5 0
1281 -3 -6 0
661 -1 -7 0
7449 -1 -8 0
1466 -1 -9 0
1839 -2 -7 0
2688 -2 -8 0
823 -2 -9 0
1471 -3 -7 0
681 -3 -8 0
5990 -3 -9 0
1087 -4 -10 0
918 -4 -11 0
940 -5 -10 0
1063 -5 -11 0
1022 -6 -10 0
978 -6 -11 0
2876 -7 -12 0
211 -7 -13 0
93 -8 -12 0
3995 -8 -13 0
1486 -9 -12 0
637 -9 -13 0
1724 -7 -14 0
1719 -7 -15 0
2000 -7 -16 0
2799 -7 -17 0
4307 -8 -14 0
4121 -8 -15 0
1506 -8 -16 0
889 -8 -17 0
3736 -9 -14 0
1234 -9 -15 0
1838 -9 -16 0
2183 -9 -17 0
438 -10 -18 0
1934 -10 -19 0
1272 -11 -18 0
771 -11 -19 0
2721 -12 -20 0
352 -12 -21 0
3944 -12 -22 0
978 -13 -20 0
1200 -13 -21 0
4128 -13 -22 0
140 -12 -23 0
3434 -12 -24 0
2456 -13 -23 0
290 -13 -24 0
4013 -14 -25 0
1075 -14 -26 0
1401 -14 -27 0
3560 -14 -28 0
1816 -15 -25 0
1315 -15 -26 0
2841 -15 -27 0
2518 -15 -28 0
3707 -16 -25 0
1425 -16 -26 0
2064 -16 -27 0
1681 -16 -28 0
1317 -17 -25 0
3440 -17 -26 0
1574 -17 -27 0
2551 -17 -28 0
2254 -18 -29 0
1137 -18 -30 0
1575 -18 -31 0
1331 -19 -29 0
1657 -19 -30 0
1809 -19 -31 0
1656 -20 -32 0
1790 -20 -33 0
1346 -20 -34 0
1457 -21 -32 0
1953 -21 -33 0
1405 -21 -34 0
1988 -22 -32 0
1201 -22 -33 0
1676 -22 -34 0
1002 -23 -35 0
2299 -23 -36 0
1750 -23 -37 0
5015 -24 -35 0
1010 -24 -36 0
1082 -24 -37 0
2383 -25 -38 0
1921 -25 -39 0
1835 -25 -40 0
1922 -25 -41 0
1587 -26 -38 0
1554 -26 -39 0
2234 -26 -40 0
3136 -26 -41 0
2390 -27 -38 0
2315 -27 -39 0
2843 -27 -40 0
1093 -27 -41 0
2046 -28 -38 0
2630 -28 -39 0
2492 -28 -40 0
1257 -28 -41 0
2313 -29 0
1304 -30 0
1555 -31 0
1151 -32 0
441 -33 0
1399 -34 0
4321 -32 -42 0
639 -32 -43 0
1701 -32 -44 0
2082 -33 -42 0
1587 -33 -43 0
1214 -33 -44 0
649 -34 -42 0
2086 -34 -43 0
2981 -34 -44 0
5134 -35 -45 0
290 -35 -46 0
2703 -35 -47 0
2945 -36 -45 0
1591 -36 -46 0
894 -36 -47 0
1355 -37 -45 0
3365 -37 -46 0
966 -37 -47 0
2818 -38 0
1664 -39 0
1617 -40 0
742 -41 0
128 -42 0
1014 -43 0
364 -44 0
1824 -42 -48 0
1017 -42 -49 0
2163 -42 -50 0
2998 -43 -48 0
1339 -43 -49 0
1060 -43 -50 0
2032 -44 -48 0
1532 -44 -49 0
1287 -44 -50 0
2591 -45 0
2681 -46 0
1207 -47 0
2631 -48 -51 0
1368 -48 -52 0
3644 -48 -53 0
1430 -48 -54 0
2978 -49 -51 0
1482 -49 -52 0
1379 -49 -53 0
2935 -49 -54 0
2695 -50 -51 0
1472 -50 -52 0
1588 -50 -53 0
2714 -50 -54 0
1971 -48 -55 0
2641 -48 -56 0
1617 -48 -57 0
1951 -48 -58 0
3159 -49 -55 0
5089 -49 -56 0
1231 -49 -57 0
1209 -49 -58 0
5876 -50 -55 0
1276 -50 -56 0
912 -50 -57 0
4696 -50 -58 0
2845 -51 -59 0
1559 -51 -60 0
1476 -51 -61 0
2626 -51 -62 0
4318 -52 -59 0
2573 -52 -60 0
1315 -52 -61 0
1396 -52 -62 0
885 -53 -59 0
3739 -53 -60 0
2234 -53 -61 0
2548 -53 -62 0
2363 -54 -59 0
1501 -54 -60 0
2688 -54 -61 0
1750 -54 -62 0
2644 -51 0
3765 -52 0
2553 -53 0
3258 -54 0
1799 -55 -63 0
1677 -55 -64 0
1322 -55 -65 0
2635 -56 -63 0
907 -56 -64 0
1709 -56 -65 0
1933 -57 -63 0
2021 -57 -64 0
1025 -57 -65 0
1557 -58 -63 0
1921 -58 -64 0
1336 -58 -65 0
2311 -59 0
1973 -60 0
1139 -61 0
1012 -62 0
1645 -59 -66 0
1866 -59 -67 0
3525 -59 -68 0
1648 -59 -69 0
1033 -60 -66 0
3595 -60 -67 0
2523 -60 -68 0
1974 -60 -69 0
1871 -61 -66 0
1711 -61 -67 0
2916 -61 -68 0
1793 -61 -69 0
807 -62 -66 0
7060 -62 -67 0
1507 -62 -68 0
3854 -62 -69 0
1793 -63 -70 0
8751 -63 -71 0
1463 -63 -72 0
1529 -63 -73 0
7384 -64 -70 0
2080 -64 -71 0
858 -64 -72 0
2280 -64 -73 0
1428 -65 -70 0
1257 -65 -71 0
4066 -65 -72 0
2736 -65 -73 0
5431 -66 -74 0
1541 -66 -75 0
1344 -66 -76 0
2062 -66 -77 0
1651 -67 -74 0
3235 -67 -75 0
3136 -67 -76 0
1115 -67 -77 0
2790 -68 -74 0
1373 -68 -75 0
4249 -68 -76 0
1262 -68 -77 0
2047 -69 -74 0
2236 -69 -75 0
1941 -69 -76 0
1809 -69 -77 0
1422 -70 -78 0
1152 -70 -79 0
2498 -70 -80 0
2488 -71 -78 0
497 -71 -79 0
3144 -71 -80 0
475 -72 -78 0
3349 -72 -79 0
2454 -72 -80 0
1278 -73 -78 0
2311 -73 -79 0
1373 -73 -80 0
4043 -74 -81 0
2060 -74 -82 0
516 -74 -83 0
230 -75 -81 0
3400 -75 -82 0
4243 -75 -83 0
5277 -76 -81 0
669 -76 -82 0
1534 -76 -83 0
1204 -77 -81 0
4000 -77 -82 0
991 -77 -83 0
1463 -74 -84 0
1086 -74 -85 0
2590 -74 -86 0
821 -75 -84 0
1335 -75 -85 0
4733 -75 -86 0
1237 -76 -84 0
2929 -76 -85 0
1169 -76 -86 0
1417 -77 -84 0
2432 -77 -85 0
1184 -77 -86 0
3021 -78 0
2351 -79 0
2953 -80 0
145 -81 -87 0
3383 -81 -88 0
267 -82 -87 0
2567 -82 -88 0
1425 -83 -87 0
672 -83 -88 0
2001 -81 -89 0
3163 -81 -90 0
1938 -81 -91 0
1405 -81 -92 0
2143 -82 -89 0
2741 -82 -90 0
1670 -82 -91 0
1691 -82 -92 0
1465 -83 -89 0
2141 -83 -90 0
5641 -83 -91 0
1355 -83 -92 0
2529 -84 -93 0
1679 -84 -94 0
1000 -84 -95 0
6118 -84 -96 0
1616 -85 -93 0
1702 -85 -94 0
2255 -85 -95 0
2673 -85 -96 0
1318 -86 -93 0
1917 -86 -94 0
3911 -86 -95 0
1902 -86 -96 0
1221 -87 -97 0
1462 -87 -98 0
2264 -87 -99 0
1344 -88 -97 0
2122 -88 -98 0
1410 -88 -99 0
4085 -89 -100 0
88 -89 -101 0
262 -90 -100 0
2591 -90 -101 0
2634 -91 -100 0
253 -91 -101 0
873 -92 -100 0
1139 -92 -101 0
2277 -89 -102 0
1812 -89 -103 0
1544 -89 -104 0
2591 -89 -105 0
1854 -90 -102 0
1851 -90 -103 0
1862 -90 -104 0
2548 -90 -105 0
1119 -91 -102 0
2635 -91 -103 0
5067 -91 -104 0
1520 -91 -105 0
2314 -92 -102 0
2230 -92 -103 0
1423 -92 -104 0
2232 -92 -105 0
2114 -93 -106 0
1656 -93 -107 0
1147 -93 -108 0
2916 -94 -106 0
1066 -94 -107 0
1358 -94 -108 0
3251 -95 -106 0
1130 -95 -107 0
1191 -95 -108 0
1160 -96 -106 0
1843 -96 -107 0
1869 -96 -108 0
2200 -97 -109 0
1136 -97 -110 0
1611 -97 -111 0
1202 -98 -109 0
959 -98 -110 0
4294 -98 -111 0
1664 -99 -109 0
2210 -99 -110 0
1095 -99 -111 0
1297 -100 -112 0
1038 -100 -113 0
6212 -100 -114 0
3431 -100 -115 0
8881 -101 -112 0
1531 -101 -113 0
1426 -101 -114 0
1839 -101 -115 0
1057 -100 0
1677 -101 0
1114 -102 -116 0
3043 -102 -117 0
1449 -102 -118 0
4310 -102 -119 0
1240 -103 -116 0
4406 -103 -117 0
1541 -103 -118 0
2428 -103 -119 0
4281 -104 -116 0
647 -104 -117 0
3111 -104 -118 0
2364 -104 -119 0
556 -105 -116 0
2013 -105 -117 0
4200 -105 -118 0
5830 -105 -119 0
1953 -106 -120 0
1911 -106 -121 0
2882 -106 -122 0
1556 -106 -123 0
6260 -107 -120 0
1501 -107 -121 0
2027 -107 -122 0
1365 -107 -123 0
2736 -108 -120 0
1807 -108 -121 0
2589 -108 -122 0
1330 -108 -123 0
1215 -109 -124 0
2463 -109 -125 0
1366 -109 -126 0
1642 -110 -124 0
1640 -110 -125 0
1479 -110 -126 0
1564 -111 -124 0
2080 -111 -125 0
1233 -111 -126 0
1822 -112 -127 0
480 -112 -128 0
8 -113 -127 0
7460 -113 -128 0
2545 -114 -127 0
271 -114 -128 0
1393 -115 -127 0
691 -115 -128 0
1276 -112 -129 0
4671 -112 -130 0
1455 -112 -131 0
2450 -112 -132 0
1766 -113 -129 0
1884 -113 -130 0
1526 -113 -131 0
3513 -113 -132 0
1679 -114 -129 0
1177 -114 -130 0
2187 -114 -131 0
5268 -114 -132 0
5002 -115 -129 0
2889 -115 -130 0
1329 -115 -131 0
1198 -115 -132 0
2816 -116 -133 0
221 -116 -134 0
116 -117 -133 0
3696 -117 -134 0
193 -118 -133 0
2997 -118 -134 0
989 -119 -133 0
1011 -119 -134 0
3478 -120 -135 0
1954 -120 -136 0
1307 -120 -137 0
2011 -120 -138 0
2621 -121 -135 0
1453 -121 -136 0
1992 -121 -137 0
2178 -121 -138 0
2531 -122 -135 0
1677 -122 -136 0
1767 -122 -137 0
2182 -122 -138 0
5580 -123 -135 0
63 -123 -136 0
7387 -123 -137 0
6003 -123 -138 0
486 -124 -139 0
1805 -124 -140 0
1387 -125 -139 0
695 -125 -140 0
228 -126 -139 0
2772 -126 -140 0
1595 -127 0
1212 -128 0
2383 -127 -141 0
2617 -127 -142 0
632 -127 -143 0
1091 -128 -141 0
2652 -128 -142 0
1429 -128 -143 0
4798 -129 0
1890 -130 0
4223 -131 0
3130 -132 0
371 -133 -144 0
2142 -133 -145 0
2227 -134 -144 0
347 -134 -145 0
1920 -135 -146 0
1622 -135 -147 0
1283 -135 -148 0
1269 -136 -146 0
3217 -136 -147 0
1067 -136 -148 0
1350 -137 -146 0
1004 -137 -147 0
3196 -137 -148 0
1258 -138 -146 0
993 -138 -147 0
3653 -138 -148 0
5473 -139 -149 0
1641 -139 -150 0
1199 -139 -151 0
2175 -139 -152 0
1616 -140 -149 0
3214 -140 -150 0
1431 -140 -151 0
2356 -140 -152 0
2829 -141 -153 0
1601 -141 -154 0
917 -141 -155 0
1719 -142 -153 0
2228 -142 -154 0
1051 -142 -155 0
938 -143 -153 0
3206 -143 -154 0
1436 -143 -155 0
928 -141 -156 0
1076 -141 -157 0
1650 -142 -156 0
554 -142 -157 0
667 -143 -156 0
1434 -143 -157 0
1788 -144 -158 0
493 -144 -159 0
668 -145 -158 0
1433 -145 -159 0
1662 -146 0
2357 -147 0
2394 -148 0
1711 -149 -160 0
5263 -149 -161 0
2017 -149 -162 0
1246 -149 -163 0
1589 -150 -160 0
1366 -150 -161 0
1860 -150 -162 0
7913 -150 -163 0
1456 -151 -160 0
1317 -151 -161 0
2163 -151 -162 0
6518 -151 -163 0
1732 -152 -160 0
915 -152 -161 0
5117 -152 -162 0
2840 -152 -163 0
1669 -153 -164 0
1579 -153 -165 0
1512 -153 -166 0
3051 -154 -164 0
1330 -154 -165 0
1054 -154 -166 0
524 -155 -164 0
3760 -155 -165 0
2116 -155 -166 0
1622 -156 -167 0
2509 -156 -168 0
3065 -156 -169 0
1396 -156 -170 0
2331 -157 -167 0
2097 -157 -168 0
1409 -157 -169 0
2389 -157 -170 0
1906 -156 -171 0
448 -156 -172 0
1550 -157 -171 0
603 -157 -172 0
1596 -158 -173 0
1956 -158 -174 0
1281 -158 -175 0
3158 -159 -173 0
1589 -159 -174 0
848 -159 -175 0
320 -160 0
1443 -161 0
910 -162 0
1504 -163 0
1893 -164 -176 0
1867 -164 -177 0
1944 -164 -178 0
2346 -164 -179 0
2467 -165 -176 0
1934 -165 -177 0
1490 -165 -178 0
2311 -165 -179 0
3189 -166 -176 0
1625 -166 -177 0
1348 -166 -178 0
2527 -166 -179 0
2377 -167 -180 0
446 -167 -181 0
3769 -167 -182 0
4588 -168 -180 0
1545 -168 -181 0
700 -168 -182 0
1415 -169 -180 0
3198 -169 -181 0
955 -169 -182 0
1375 -170 -180 0
1004 -170 -181 0
3110 -170 -182 0
7594 -171 -183 0
1030 -171 -184 0
986 -171 -185 0
353 -172 -183 0
2586 -172 -184 0
4313 -172 -185 0
1459 -171 -186 0
1444 -171 -187 0
1897 -171 -188 0
1987 -172 -186 0
1453 -172 -187 0
1386 -172 -188 0
594 -173 0
732 -174 0
2219 -175 0
4016 -176 0
1672 -177 0
2604 -178 0
1627 -179 0
3171 -180 0
1327 -181 0
833 -182 0
139 -183 -189 0
3444 -183 -190 0
1163 -184 -189 0
854 -184 -190 0
2678 -185 -189 0
245 -185 -190 0
2265 -186 -191 0
1244 -186 -192 0
1436 -186 -193 0
3167 -187 -191 0
2257 -187 -192 0
557 -187 -193 0
3218 -188 -191 0
469 -188 -192 0
2557 -188 -193 0
1540 -189 -194 0
4608 -189 -195 0
701 -189 -196 0
3207 -190 -194 0
707 -190 -195 0
1842 -190 -196 0
2169 -191 -197 0
2294 -191 -198 0
802 -191 -199 0
4498 -192 -197 0
1460 -192 -198 0
756 -192 -199 0
869 -193 -197 0
1431 -193 -198 0
3614 -193 -199 0
3925 -194 -200 0
98 -194 -201 0
1615 -195 -200 0
570 -195 -201 0
1073 -196 -200 0
931 -196 -201 0
1521 -197 -202 0
618 -197 -203 0
650 -198 -202 0
1464 -198 -203 0
1524 -199 -202 0
617 -199 -203 0
2531 -197 -204 0
2013 -197 -205 0
1992 -197 -206 0
1609 -197 -207 0
2660 -198 -204 0
1311 -198 -205 0
2800 -198 -206 0
1760 -198 -207 0
1594 -199 -204 0
4519 -199 -205 0
2214 -199 -206 0
1287 -199 -207 0
1622 -200 -208 0
1589 -200 -209 0
1601 -200 -210 0
6272 -200 -211 0
4396 -201 -208 0
1895 -201 -209 0
1263 -201 -210 0
1906 -201 -211 0
1321 -202 -212 0
4121 -202 -213 0
883 -202 -214 0
1063 -203 -212 0
1336 -203 -213 0
2999 -203 -214 0
581 -202 -215 0
1593 -202 -216 0
1709 -203 -215 0
527 -203 -216 0
2813 -204 -217 0
1324 -204 -218 0
4420 -204 -219 0
1281 -204 -220 0
4700 -205 -217 0
1190 -205 -218 0
1150 -205 -219 0
3785 -205 -220 0
1183 -206 -217 0
2667 -206 -218 0
2967 -206 -219 0
1867 -206 -220 0
1669 -207 -217 0
1857 -207 -218 0
3067 -207 -219 0
1785 -207 -220 0
1830 -208 -221 0
1595 -208 -222 0
1367 -208 -223 0
895 -209 -221 0
3469 -209 -222 0
1426 -209 -223 0
1516 -210 -221 0
1504 -210 -222 0
1748 -210 -223 0
4032 -211 -221 0
302 -211 -222 0
2971 -211 -223 0
1031 -212 -224 0
969 -212 -225 0
2787 -213 -224 0
226 -213 -225 0
956 -214 -224 0
1045 -214 -225 0
844 -212 -226 0
3666 -212 -227 0
1457 -212 -228 0
944 -213 -226 0
1427 -213 -227 0
3208 -213 -228 0
1146 -214 -226 0
12439 -214 -227 0
868 -214 -228 0
1773 -215 -229 0
1635 -215 -230 0
4713 -215 -231 0
1526 -215 -232 0
2834 -216 -229 0
1545 -216 -230 0
3172 -216 -231 0
1300 -216 -232 0
2418 -217 -233 0
1259 -217 -234 0
1340 -217 -235 0
4547 -218 -233 0
642 -218 -234 0
1661 -218 -235 0
4002 -219 -233 0
1062 -219 -234 0
1125 -219 -235 0
2020 -220 -233 0
596 -220 -234 0
3443 -220 -235 0
3522 -221 -236 0
1372 -221 -237 0
1444 -221 -238 0
2654 -221 -239 0
2159 -222 -236 0
2012 -222 -237 0
1963 -222 -238 0
1880 -222 -239 0
1502 -223 -236 0
2288 -223 -237 0
4924 -223 -238 0
1289 -223 -239 0
90 -224 -240 0
4054 -224 -241 0
393 -225 -240 0
2068 -225 -241 0
1108 -224 -242 0
900 -224 -243 0
1582 -225 -242 0
586 -225 -243 0
2055 -226 -244 0
4858 -226 -245 0
1368 -226 -246 0
1568 -226 -247 0
3064 -227 -244 0
1267 -227 -245 0
1301 -227 -246 0
4079 -227 -247 0
1616 -228 -244 0
1711 -228 -245 0
3085 -228 -246 0
1998 -228 -247 0
1279 -229 0
2969 -230 0
1696 -231 0
1424 -232 0
977 -233 0
117 -234 0
607 -235 0
1862 -236 -248 0
1500 -236 -249 0
1429 -236 -250 0
1896 -237 -248 0
1492 -237 -249 0
1412 -237 -250 0
482 -238 -248 0
4330 -238 -249 0
2093 -238 -250 0
1447 -239 -248 0
1387 -239 -249 0
1996 -239 -250 0
1778 -240 -251 0
1671 -240 -252 0
1343 -240 -253 0
1297 -241 -251 0
1147 -241 -252 0
2820 -241 -253 0
185 -240 -254 0
3057 -240 -255 0
2476 -241 -254 0
286 -241 -255 0
1738 -242 -256 0
1251 -242 -257 0
1902 -242 -258 0
6326 -242 -259 0
3354 -243 -256 0
2093 -243 -257 0
1236 -243 -258 0
2039 -243 -259 0
658 -244 -260 0
1449 -244 -261 0
664 -245 -260 0
1439 -245 -261 0
1546 -246 -260 0
605 -246 -261 0
467 -247 -260 0
1856 -247 -261 0
2320 -248 -262 0
323 -248 -263 0
1296 -249 -262 0
755 -249 -263 0
1091 -250 -262 0
915 -250 -263 0
3710 -251 -264 0
1571 -251 -265 0
1867 -251 -266 0
1676 -251 -267 0
1859 -252 -264 0
923 -252 -265 0
3773 -252 -266 0
3016 -252 -267 0
1541 -253 -264 0
1732 -253 -265 0
2908 -253 -266 0
2171 -253 -267 0
831 -251 -268 0
1191 -251 -269 0
1312 -252 -268 0
743 -252 -269 0
267 -253 -268 0
2564 -253 -269 0
961 -254 0
1527 -255 0
6053 -256 -270 0
866 -256 -271 0
1991 -256 -272 0
2436 -256 -273 0
2921 -257 -270 0
1229 -257 -271 0
1253 -257 -272 0
5528 -257 -273 0
4252 -258 -270 0
3228 -258 -271 0
1286 -258 -272 0
1216 -258 -273 0
2193 -259 -270 0
1771 -259 -271 0
2421 -259 -272 0
1730 -259 -273 0
370 -260 -274 0
2143 -260 -275 0
999 -261 -274 0
1001 -261 -275 0
1398 -262 0
1151 -263 0
1780 -264 -276 0
1842 -264 -277 0
1637 -264 -278 0
3206 -264 -279 0
765 -265 -276 0
1779 -265 -277 0
3872 -265 -278 0
4271 -265 -279 0
1996 -266 -276 0
2381 -266 -277 0
2433 -266 -278 0
1426 -266 -279 0
1732 -267 -276 0
1534 -267 -277 0
4501 -267 -278 0
1691 -267 -279 0
1517 -268 -280 0
2390 -268 -281 0
1121 -268 -282 0
1050 -269 -280 0
1350 -269 -281 0
3004 -269 -282 0
1341 -270 -283 0
4445 -270 -284 0
838 -270 -285 0
1114 -271 -283 0
3022 -271 -284 0
1269 -271 -285 0
3609 -272 -283 0
1179 -272 -284 0
1070 -272 -285 0
4554 -273 -283 0
518 -273 -284 0
1948 -273 -285 0
2888 -274 -286 0
1640 -274 -287 0
878 -274 -288 0
1043 -275 -286 0
1684 -275 -287 0
2297 -275 -288 0
4413 -276 -289 0
2090 -276 -290 0
1448 -276 -291 0
1508 -276 -292 0
6473 -277 -289 0
2130 -277 -290 0
747 -277 -291 0
2605 -277 -292 0
1955 -278 -289 0
1449 -278 -290 0
3062 -278 -291 0
1966 -278 -292 0
1296 -279 -289 0
2762 -279 -290 0
3054 -279 -291 0
1622 -279 -292 0
1906 -276 -293 0
5624 -276 -294 0
1326 -276 -295 0
1671 -276 -296 0
1769 -277 -293 0
2759 -277 -294 0
1258 -277 -295 0
2830 -277 -296 0
2999 -278 -293 0
1783 -278 -294 0
1795 -278 -295 0
1756 -278 -296 0
1437 -279 -293 0
1547 -279 -294 0
2130 -279 -295 0
4057 -279 -296 0
2280 -280 -297 0
333 -280 -298 0
615 -281 -297 0
1527 -281 -298 0
943 -282 -297 0
1059 -282 -298 0
468 -283 -299 0
1852 -283 -300 0
739 -284 -299 0
1319 -284 -300 0
1855 -285 -299 0
467 -285 -300 0
824 -286 0
507 -287 0
925 -288 0
2268 -289 -301 0
3162 -289 -302 0
1208 -289 -303 0
2013 -289 -304 0
1904 -290 -301 0
1586 -290 -302 0
1472 -290 -303 0
4671 -290 -304 0
2614 -291 -301 0
1164 -291 -302 0
1857 -291 -303 0
3128 -291 -304 0
2544 -292 -301 0
1529 -292 -302 0
1428 -292 -303 0
3178 -292 -304 0
881 -289 -305 0
1129 -289 -306 0
691 -290 -305 0
1394 -290 -306 0
10 -291 -305 0
7115 -291 -306 0
1142 -292 -305 0
871 -292 -306 0
1925 -293 -307 0
1980 -293 -308 0
1049 -293 -309 0
1477 -294 -307 0
1307 -294 -308 0
2080 -294 -309 0
1430 -295 -307 0
2042 -295 -308 0
1373 -295 -309 0
624 -296 -307 0
2720 -296 -308 0
2326 -296 -309 0
2954 -297 0
1415 -298 0
420 -299 -310 0
2078 -299 -311 0
6008 -299 -312 0
5270 -300 -310 0
1429 -300 -311 0
731 -300 -312 0
6391 -301 -313 0
17 -301 -314 0
1724 -302 -313 0
520 -302 -314 0
1205 -303 -313 0
820 -303 -314 0
3161 -304 -313 0
171 -304 -314 0
1759 -301 -315 0
4154 -301 -316 0
845 -301 -317 0
3448 -301 -318 0
4446 -302 -315 0
1166 -302 -316 0
1033 -302 -317 0
5661 -302 -318 0
3975 -303 -315 0
2396 -303 -316 0
1350 -303 -317 0
1497 -303 -318 0
2059 -304 -315 0
2022 -304 -316 0
1642 -304 -317 0
2372 -304 -318 0
1460 -305 -319 0
1080 -305 -320 0
2614 -305 -321 0
1552 -306 -319 0
1411 -306 -320 0
1822 -306 -321 0
1723 -307 -322 0
1943 -307 -323 0
1195 -307 -324 0
2838 -308 -322 0
679 -308 -323 0
2087 -308 -324 0
2711 -309 -322 0
376 -309 -323 0
3700 -309 -324 0
1253 -310 -325 0
924 -310 -326 0
4225 -310 -327 0
2042 -311 -325 0
963 -311 -326 0
2035 -311 -327 0
1211 -312 -325 0
2149 -312 -326 0
1546 -312 -327 0
1565 -313 -328 0
4923 -313 -329 0
2232 -313 -330 0
1265 -313 -331 0
2099 -314 -328 0
1248 -314 -329 0
1625 -314 -330 0
5545 -314 -331 0
569 -315 0
560 -316 0
341 -317 0
1344 -318 0
2363 -315 -332 0
1547 -315 -333 0
1109 -315 -334 0
1753 -316 -332 0
2747 -316 -333 0
851 -316 -334 0
2482 -317 -332 0
1209 -317 -333 0
1365 -317 -334 0
1252 -318 -332 0
1158 -318 -333 0
2920 -318 -334 0
536 -319 -335 0
3579 -319 -336 0
2389 -319 -337 0
4800 -319 -338 0
6392 -320 -335 0
1533 -320 -336 0
764 -320 -337 0
4217 -320 -338 0
3074 -321 -335 0
1276 -321 -336 0
1331 -321 -337 0
3819 -321 -338 0
1016 -322 -339 0
2160 -322 -340 0
1828 -322 -341 0
2248 -323 -339 0
1452 -323 -340 0
1238 -323 -341 0
687 -324 -339 0
1654 -324 -340 0
4034 -324 -341 0
637 -325 -342 0
1486 -325 -343 0
411 -326 -342 0
2012 -326 -343 0
14 -327 -342 0
6714 -327 -343 0
3376 -328 -344 0
2128 -328 -345 0
1417 -328 -346 0
1735 -328 -347 0
4313 -329 -344 0
846 -329 -345 0
1907 -329 -346 0
2981 -329 -347 0
1718 -330 -344 0
1780 -330 -345 0
3241 -330 -346 0
1741 -330 -347 0
8602 -331 -344 0
1312 -331 -345 0
1882 -331 -346 0
1629 -331 -347 0
2697 -332 -348 0
5103 -332 -349 0
1258 -332 -350 0
1327 -332 -351 0
1462 -333 -348 0
1690 -333 -349 0
3922 -333 -350 0
1938 -333 -351 0
5163 -334 -348 0
2129 -334 -349 0
3298 -334 -350 0
640 -334 -351 0
4538 -332 -352 0
2199 -332 -353 0
3106 -332 -354 0
683 -332 -355 0
1705 -333 -352 0
1841 -333 -353 0
2690 -333 -354 0
1947 -333 -355 0
1438 -334 -352 0
1954 -334 -353 0
1614 -334 -354 0
4432 -334 -355 0
1183 -335 0
1135 -336 0
1358 -337 0
1237 -338 0
509 -339 0
867 -340 0
856 -341 0
558 -342 -356 0
4673 -342 -357 0
1829 -342 -358 0
1525 -343 -356 0
1219 -343 -357 0
2165 -343 -358 0
2331 -344 0
1593 -345 0
1309 -346 0
1236 -347 0
1740 -348 -359 0
1735 -348 -360 0
1322 -348 -361 0
1137 -349 -359 0
2769 -349 -360 0
1327 -349 -361 0
2686 -350 -359 0
1422 -350 -360 0
1085 -350 -361 0
1310 -351 -359 0
2280 -351 -360 0
1356 -351 -361 0
3667 -352 -362 0
1984 -352 -363 0
1808 -352 -364 0
1385 -352 -365 0
2019 -353 -362 0
2538 -353 -363 0
2278 -353 -364 0
1416 -353 -365 0
1752 -354 -362 0
3534 -354 -363 0
1723 -354 -364 0
1673 -354 -365 0
3716 -355 -362 0
2018 -355 -363 0
1979 -355 -364 0
1240 -355 -365 0
121 -356 -366 0
3633 -356 -367 0
1734 -357 -366 0
516 -357 -367 0
567 -358 -366 0
1622 -358 -367 0
1391 -359 -368 0
1358 -359 -369 0
2130 -359 -370 0
2128 -360 -368 0
2199 -360 -369 0
853 -360 -370 0
713 -361 -368 0
2655 -361 -369 0
2113 -361 -370 0
464 -362 -371 0
2633 -362 -372 0
3134 -362 -373 0
1287 -363 -371 0
1738 -363 -372 0
1783 -363 -373 0
1563 -364 -371 0
2480 -364 -372 0
1052 -364 -373 0
2746 -365 -371 0
253 -365 -372 0
6424 -365 -373 0
1557 -366 -374 0
1522 -366 -375 0
1724 -366 -376 0
6767 -366 -377 0
2191 -367 -374 0
2381 -367 -375 0
1430 -367 -376 0
2198 -367 -377 0
1281 -368 -378 0
1394 -368 -379 0
3274 -368 -380 0
3258 -368 -381 0
1507 -369 -378 0
2038 -369 -379 0
4933 -369 -380 0
1427 -369 -381 0
1748 -370 -378 0
1396 -370 -379 0
3642 -370 -380 0
2046 -370 -381 0
2066 -371 -382 0
394 -371 -383 0
1089 -372 -382 0
916 -372 -383 0
582 -373 -382 0
1591 -373 -383 0
3977 -371 -384 0
95 -371 -385 0
737 -372 -384 0
1321 -372 -385 0
1836 -373 -384 0
474 -373 -385 0
2809 -374 -386 0
1152 -374 -387 0
1296 -374 -388 0
2188 -375 -386 0
1063 -375 -387 0
1728 -375 -388 0
1106 -376 -386 0
6587 -376 -387 0
930 -376 -388 0
1912 -377 -386 0
488 -377 -387 0
5559 -377 -388 0
386 -378 -389 0
4293 -378 -390 0
2444 -378 -391 0
994 -379 -389 0
1159 -379 -390 0
4316 -379 -391 0
922 -380 -389 0
6066 -380 -390 0
1128 -380 -391 0
1872 -381 -389 0
1504 -381 -390 0
1418 -381 -391 0
662 -382 -392 0
1442 -382 -393 0
690 -383 -392 0
1396 -383 -393 0
848 -382 -394 0
1170 -382 -395 0
288 -383 -394 0
2468 -383 -395 0
514 -384 -396 0
1737 -384 -397 0
2037 -385 -396 0
403 -385 -397 0
822 -386 -398 0
4852 -386 -399 0
1322 -386 -400 0
1875 -387 -398 0
990 -387 -399 0
2158 -387 -400 0
1800 -388 -398 0
1204 -388 -399 0
1842 -388 -400 0
1162 -389 -401 0
2345 -389 -402 0
1488 -389 -403 0
1932 -390 -401 0
1283 -390 -402 0
1613 -390 -403 0
2096 -391 -401 0
1285 -391 -402 0
1491 -391 -403 0
1654 -392 -404 0
552 -392 -405 0
419 -393 -404 0
1989 -393 -405 0
2190 -392 -406 0
357 -392 -407 0
1750 -393 -406 0
509 -393 -407 0
2539 -394 0
2457 -395 0
765 -396 -408 0
1281 -396 -409 0
635 -397 -408 0
1490 -397 -409 0
1906 -398 -410 0
448 -398 -411 0
523 -399 -410 0
1718 -399 -411 0
1160 -400 -410 0
856 -400 -411 0
57 -401 -412 0
4692 -401 -413 0
909 -402 -412 0
1098 -402 -413 0
4192 -403 -412 0
81 -403 -413 0
4090 -404 -414 0
1468 -404 -415 0
2173 -404 -416 0
1483 -404 -417 0
1831 -405 -414 0
2257 -405 -415 0
1120 -405 -416 0
4329 -405 -417 0
2722 -406 -418 0
3943 -406 -419 0
2107 -406 -420 0
859 -406 -421 0
2362 -407 -418 0
8045 -407 -419 0
1761 -407 -420 0
981 -407 -421 0
2015 -406 -422 0
2143 -406 -423 0
2233 -406 -424 0
1673 -406 -425 0
1595 -407 -422 0
1623 -407 -423 0
2820 -407 -424 0
2302 -407 -425 0
1512 -408 -426 0
2856 -408 -427 0
968 -408 -428 0
944 -409 -426 0
1924 -409 -427 0
2208 -409 -428 0
1525 -410 -429 0
616 -410 -430 0
1393 -411 -429 0
692 -411 -430 0
998 -412 -431 0
1002 -412 -432 0
1076 -413 -431 0
928 -413 -432 0
287 -414 -433 0
2469 -414 -434 0
858 -415 -433 0
1157 -415 -434 0
135 -416 -433 0
3485 -416 -434 0
2983 -417 -433 0
195 -417 -434 0
1466 -418 -435 0
2089 -418 -436 0
1906 -418 -437 0
2879 -418 -438 0
2104 -419 -435 0
1546 -419 -436 0
3234 -419 -437 0
1650 -419 -438 0
2415 -420 -435 0
625 -420 -436 0
3319 -420 -437 0
3969 -420 -438 0
2702 -421 -435 0
1931 -421 -436 0
1959 -421 -437 0
1613 -421 -438 0
518 -418 -439 0
4383 -418 -440 0
1978 -418 -441 0
1004 -419 -439 0
4571 -419 -440 0
1123 -419 -441 0
1237 -420 -439 0
1031 -420 -440 0
3529 -420 -441 0
4244 -421 -439 0
1091 -421 -440 0
1066 -421 -441 0
2757 -422 -442 0
1884 -422 -443 0
2080 -422 -444 0
1537 -422 -445 0
2272 -423 -442 0
2660 -423 -443 0
2016 -423 -444 0
1368 -423 -445 0
1720 -424 -442 0
2771 -424 -443 0
1405 -424 -444 0
2537 -424 -445 0
2141 -425 -442 0
4151 -425 -443 0
1435 -425 -444 0
1526 -425 -445 0
945 -426 -446 0
3088 -426 -447 0
1462 -426 -448 0
768 -427 -446 0
1350 -427 -447 0
5619 -427 -448 0
6194 -428 -446 0
2351 -428 -447 0
340 -428 -448 0
816 -429 -449 0
1210 -429 -450 0
519 -430 -449 0
1727 -430 -450 0
489 -431 -451 0
1798 -431 -452 0
1365 -432 -451 0
709 -432 -452 0
691 -433 -453 0
1394 -433 -454 0
931 -434 -453 0
1072 -434 -454 0
1772 -435 0
1645 -436 0
1953 -437 0
3078 -438 0
1877 -439 -455 0
1555 -439 -456 0
3682 -439 -457 0
1691 -439 -458 0
3188 -440 -455 0
1359 -440 -456 0
2590 -440 -457 0
1580 -440 -458 0
970 -441 -455 0
1447 -441 -456 0
3515 -441 -457 0
4828 -441 -458 0
950 -439 -459 0
2925 -439 -460 0
2405 -439 -461 0
2626 -439 -462 0
1427 -440 -459 0
1625 -440 -460 0
5281 -440 -461 0
1846 -440 -462 0
2433 -441 -459 0
2565 -441 -460 0
1611 -441 -461 0
1650 -441 -462 0
2909 -442 -463 0
1109 -442 -464 0
1310 -442 -465 0
3941 -443 -463 0
1262 -443 -464 0
949 -443 -465 0
1149 -444 -463 0
1183 -444 -464 0
3203 -444 -465 0
1165 -445 -463 0
1502 -445 -464 0
2314 -445 -465 0
3706 -446 -466 0
115 -446 -467 0
2538 -447 -466 0
273 -447 -467 0
2278 -448 -466 0
333 -448 -467 0
64 -449 -468 0
4523 -449 -469 0
114 -450 -468 0
3713 -450 -469 0
3561 -451 0
1285 -452 0
1253 -453 -470 0
1816 -453 -471 0
2660 -453 -472 0
2857 -453 -473 0
1196 -454 -470 0
3821 -454 -471 0
1167 -454 -472 0
4401 -454 -473 0
983 -455 -474 0
1017 -455 -475 0
1605 -456 -474 0
575 -456 -475 0
195 -457 -474 0
2985 -457 -475 0
1375 -458 -474 0
702 -458 -475 0
1983 -459 -476 0
1688 -459 -477 0
2211 -459 -478 0
2179 -459 -479 0
4539 -460 -476 0
942 -460 -477 0
1928 -460 -478 0
2526 -460 -479 0
2451 -461 -476 0
1532 -461 -477 0
2277 -461 -478 0
1917 -461 -479 0
2679 -462 -476 0
1586 -462 -477 0
2522 -462 -478 0
1571 -462 -479 0
1633 -463 -480 0
562 -463 -481 0
210 -464 -480 0
2884 -464 -481 0
1026 -465 -480 0
975 -465 -481 0
635 -466 -482 0
1489 -466 -483 0
1248 -467 -482 0
788 -467 -483 0
1899 -468 -484 0
450 -468 -485 0
1437 -469 -484 0
665 -469 -485 0
653 -470 -486 0
1459 -470 -487 0
896 -471 -486 0
1112 -471 -487 0
295 -472 -486 0
2434 -472 -487 0
695 -473 -486 0
1387 -473 -487 0
2979 -474 -488 0
1356 -474 -489 0
3338 -474 -490 0
1382 -474 -491 0
1687 -475 -488 0
1532 -475 -489 0
1794 -475 -490 0
4181 -475 -491 0
1946 -476 -492 0
1359 -476 -493 0
2883 -476 -494 0
2218 -476 -495 0
3229 -477 -492 0
1701 -477 -493 0
1970 -477 -494 0
1597 -477 -495 0
1370 -478 -492 0
1402 -478 -493 0
2875 -478 -494 0
3346 -478 -495 0
1485 -479 -492 0
2885 -479 -493 0
1990 -479 -494 0
1968 -479 -495 0
402 -480 -496 0
2040 -480 -497 0
846 -481 -496 0
1172 -481 -497 0
1292 -482 -498 0
2702 -482 -499 0
1191 -482 -500 0
6401 -483 -498 0
150 -483 -499 0
3524 -483 -500 0
1181 -484 -501 0
1875 -484 -502 0
1804 -484 -503 0
1392 -485 -501 0
1043 -485 -502 0
2902 -485 -503 0
1254 -486 -504 0
784 -486 -505 0
2032 -487 -504 0
404 -487 -505 0
892 -488 -506 0
1117 -488 -507 0
1446 -489 -506 0
660 -489 -507 0
1153 -490 -506 0
862 -490 -507 0
1076 -491 -506 0
928 -491 -507 0
1670 -492 -508 0
1521 -492 -509 0
1937 -492 -510 0
3716 -492 -511 0
1331 -493 -508 0
1603 -493 -509 0
2090 -493 -510 0
4701 -493 -511 0
1606 -494 -508 0
2376 -494 -509 0
1856 -494 -510 0
2303 -494 -511 0
1944 -495 -508 0
829 -495 -509 0
2575 -495 -510 0
6709 -495 -511 0
8034 -496 -512 0
6 -496 -513 0
1756 -497 -512 0
507 -497 -513 0
1830 -498 0
7120 -499 0
1276 -500 0
559 -501 -514 0
1637 -501 -515 0
684 -502 -514 0
1404 -502 -515 0
1357 -503 -514 0
714 -503 -515 0
781 -504 -516 0
1258 -504 -517 0
1590 -505 -516 0
582 -505 -517 0
1532 -506 -518 0
612 -506 -519 0
1292 -507 -518 0
757 -507 -519 0
1459 -508 -520 0
1230 -508 -521 0
2253 -508 -522 0
2866 -509 -520 0
1503 -509 -521 0
971 -509 -522 0
3779 -510 -520 0
1261 -510 -521 0
971 -510 -522 0
812 -511 -520 0
1724 -511 -521 0
2970 -511 -522 0
1820 -512 -523 0
480 -512 -524 0
2314 -513 -523 0
324 -513 -524 0
1263 -514 0
1529 -515 0
1693 -516 -525 0
2119 -516 -526 0
2092 -516 -527 0
2146 -516 -528 0
2265 -517 -525 0
1296 -517 -526 0
6943 -517 -527 0
1410 -517 -528 0
1252 -518 -529 0
786 -518 -530 0
1461 -519 -529 0
651 -519 -530 0
1953 -520 -531 0
2316 -520 -532 0
4117 -520 -533 0
1049 -520 -534 0
2000 -521 -531 0
1400 -521 -532 0
2048 -521 -533 0
2950 -521 -534 0
6311 -522 -531 0
1954 -522 -532 0
2354 -522 -533 0
906 -522 -534 0
2775 -523 -535 0
835 -523 -536 0
1770 -523 -537 0
3533 -524 -535 0
1064 -524 -536 0
1200 -524 -537 0
2290 -525 -538 0
330 -525 -539 0
619 -526 -538 0
1519 -526 -539 0
1063 -527 -538 0
939 -527 -539 0
2458 -528 -538 0
290 -528 -539 0
2408 -529 -540 0
301 -529 -541 0
98 -530 -540 0
3924 -530 -541 0
1464 -531 -542 0
649 -531 -543 0
2152 -532 -542 0
368 -532 -543 0
1679 -533 -542 0
540 -533 -543 0
3351 -534 -542 0
149 -534 -543 0
109 -535 -544 0
3783 -535 -545 0
919 -536 -544 0
1086 -536 -545 0
479 -537 -544 0
1825 -537 -545 0
4425 -538 -546 0
69 -538 -547 0
1081 -539 -546 0
924 -539 -547 0
1599 -540 -548 0
1993 -540 -549 0
3918 -540 -550 0
1504 -540 -551 0
1527 -541 -548 0
3483 -541 -549 0
2206 -541 -550 0
1528 -541 -551 0
1462 -542 -552 0
651 -542 -553 0
2475 -543 -552 0
286 -543 -553 0
315 -544 -554 0
2351 -544 -555 0
3509 -545 -554 0
133 -545 -555 0
1899 -546 -556 0
1875 -546 -557 0
1300 -546 -558 0
4241 -546 -559 0
2124 -547 -556 0
1956 -547 -557 0
1133 -547 -558 0
4137 -547 -559 0
3155 -548 0
2801 -549 0
1765 -550 0
1401 -551 0
1398 -552 -560 0
3133 -552 -561 0
982 -552 -562 0
2162 -553 -560 0
831 -553 -561 0
2220 -553 -562 0
2710 -554 -563 0
1537 -554 -564 0
1774 -554 -565 0
2251 -554 -566 0
4474 -555 -563 0
1715 -555 -564 0
1102 -555 -565 0
2438 -555 -566 0
1599 -556 -567 0
1937 -556 -568 0
2913 -556 -569 0
1858 -556 -570 0
1767 -557 -567 0
1794 -557 -568 0
5993 -557 -569 0
1314 -557 -570 0
2557 -558 -567 0
2063 -558 -568 0
1763 -558 -569 0
1756 -558 -570 0
1660 -559 -567 0
1070 -559 -568 0
3780 -559 -569 0
2893 -559 -570 0
1964 -560 -571 0
427 -560 -572 0
74 -561 -571 0
4330 -561 -572 0
422 -562 -571 0
1980 -562 -572 0
5449 -563 -573 0
662 -563 -574 0
1535 -563 -575 0
3757 -564 -573 0
462 -564 -574 0
2323 -564 -575 0
970 -565 -573 0
2175 -565 -574 0
1899 -565 -575 0
4751 -566 -573 0
1660 -566 -574 0
629 -566 -575 0
2043 -567 -576 0
2292 -567 -577 0
1491 -567 -578 0
2340 -567 -579 0
1552 -568 -576 0
1722 -568 -577 0
2651 -568 -578 0
2346 -568 -579 0
2497 -569 -576 0
9317 -569 -577 0
1296 -569 -578 0
1272 -569 -579 0
2308 -570 -576 0
2032 -570 -577 0
1492 -570 -578 0
2336 -570 -579 0
307 -571 -580 0
2383 -571 -581 0
1113 -572 -580 0
895 -572 -581 0
1134 -573 0
1888 -574 0
3551 -575 0
3330 -576 -582 0
2060 -576 -583 0
1720 -576 -584 0
1485 -576 -585 0
2139 -577 -582 0
1323 -577 -583 0
2630 -577 -584 0
2238 -577 -585 0
2575 -578 -582 0
1378 -578 -583 0
1380 -578 -584 0
3982 -578 -585 0
2056 -579 -582 0
1865 -579 -583 0
3141 -579 -584 0
1428 -579 -585 0
468 -580 0
2651 -581 0
1117 -582 -586 0
892 -582 -587 0
627 -583 -586 0
1504 -583 -587 0
1482 -584 -586 0
639 -584 -587 0
2894 -585 -586 0
208 -585 -587 0
1989 -586 -588 0
1917 -586 -589 0
1574 -586 -590 0
2762 -586 -591 0
1091 -587 -588 0
2638 -587 -589 0
1911 -587 -590 0
3264 -587 -591 0
986 -588 -592 0
1014 -588 -593 0
2206 -589 -592 0
352 -589 -593 0
60 -590 -592 0
4620 -590 -593 0
408 -591 -592 0
2023 -591 -593 0
3205 -592 -594 0
166 -592 -595 0
746 -593 -594 0
1308 -593 -595 0
4376 -594 -596 0
868 -594 -597 0
1307 -594 -598 0
1042 -595 -596 0
2710 -595 -597 0
1468 -595 -598 0
1508 -596 -599 0
1850 -596 -600 0
1488 -596 -601 0
6108 -596 -602 0
1668 -597 -599 0
2430 -597 -600 0
2302 -597 -601 0
1751 -597 -602 0
3481 -598 -599 0
993 -598 -600 0
5773 -598 -601 0
1360 -598 -602 0
1169 -599 -603 0
849 -599 -604 0
422 -600 -603 0
1979 -600 -604 0
987 -601 -603 0
1013 -601 -604 0
4366 -602 -603 0
72 -602 -604 0
1498 -603 0
1657 -604 0
h 1 2 3 0
h 4 5 6 0
h 7 8 9 0
h 10 11 0
h 12 13 0
h 14 15 16 17 0
h 18 19 0
h 20 21 22 0
h 23 24 0
h 25 26 27 28 0
h 29 30 31 0
h 32 33 34 0
h 35 36 37 0
h 38 39 40 41 0
h 42 43 44 0
h 45 46 47 0
h 48 49 50 0
h 51 52 53 54 0
h 55 56 57 58 0
h 59 60 61 62 0
h 63 64 65 0
h 66 67 68 69 0
h 70 71 72 73 0
h 74 75 76 77 0
h 78 79 80 0
h 81 82 83 0
h 84 85 86 0
h 87 88 0
h 89 90 91 92 0
h 93 94 95 96 0
h 97 98 99 0
h 100 101 0
h 102 103 104 105 0
h 106 107 108 0
h 109 110 111 0
h 112 113 114 115 0
h 116 117 118 119 0
h 120 121 122 123 0
h 124 125 126 0
h 127 128 0
h 129 130 131 132 0
h 133 134 0
h 135 136 137 138 0
h 139 140 0
h 141 142 143 0
h 144 145 0
h 146 147 148 0
h 149 150 151 152 0
h 153 154 155 0
h 156 157 0
h 158 159 0
h 160 161 162 163 0
h 164 165 166 0
h 167 168 169 170 0
h 171 172 0
h 173 174 175 0
h 176 177 178 179 0
h 180 181 182 0
h 183 184 185 0
h 186 187 188 0
h 189 190 0
h 191 192 193 0
h 194 195 196 0
h 197 198 199 0
h 200 201 0
h 202 203 0
h 204 205 206 207 0
h 208 209 210 211 0
h 212 213 214 0
h 215 216 0
h 217 218 219 220 0
h 221 222 223 0
h 224 225 0
h 226 227 228 0
h 229 230 231 232 0
h 233 234 235 0
h 236 237 238 239 0
h 240 241 0
h 242 243 0
h 244 245 246 247 0
h 248 249 250 0
h 251 252 253 0
h 254 255 0
h 256 257 258 259 0
h 260 261 0
h 262 263 0
h 264 265 266 267 0
h 268 269 0
h 270 271 272 273 0
h 274 275 0
h 276 277 278 279 0
h 280 281 282 0
h 283 284 285 0
h 286 287 288 0
h 289 290 291 292 0
h 293 294 295 296 0
h 297 298 0
h 299 300 0
h 301 302 303 304 0
h 305 306 0
h 307 308 309 0
h 310 311 312 0
h 313 314 0
h 315 316 317 318 0
h 319 320 321 0
h 322 323 324 0
h 325 326 327 0
h 328 329 330 331 0
h 332 333 334 0
h 335 336 337 338 0
h 339 340 341 0
h 342 343 0
h 344 345 346 347 0
h 348 349 350 351 0
h 352 353 354 355 0
h 356 357 358 0
h 359 360 361 0
h 362 363 364 365 0
h 366 367 0
h 368 369 370 0
h 371 372 373 0
h 374 375 376 377 0
h 378 379 380 381 0
h 382 383 0
h 384 385 0
h 386 387 388 0
h 389 390 391 0
h 392 393 0
h 394 395 0
h 396 397 0
h 398 399 400 0
h 401 402 403 0
h 404 405 0
h 406 407 0
h 408 409 0
h 410 411 0
h 412 413 0
h 414 415 416 417 0
h 418 419 420 421 0
h 422 423 424 425 0
h 426 427 428 0
h 429 430 0
h 431 432 0
h 433 434 0
h 435 436 437 438 0
h 439 440 441 0
h 442 443 444 445 0
h 446 447 448 0
h 449 450 0
h 451 452 0
h 453 454 0
h 455 456 457 458 0
h 459 460 461 462 0
h 463 464 465 0
h 466 467 0
h 468 469 0
h 470 471 472 473 0
h 474 475 0
h 476 477 478 479 0
h 480 481 0
h 482 483 0
h 484 485 0
h 486 487 0
h 488 489 490 491 0
h 492 493 494 495 0
h 496 497 0
h 498 499 500 0
h 501 502 503 0
h 504 505 0
h 506 507 0
h 508 509 510 511 0
h 512 513 0
h 514 515 0
h 516 517 0
h 518 519 0
h 520 521 522 0
h 523 524 0
h 525 526 527 528 0
h 529 530 0
h 531 532 533 534 0
h 535 536 537 0
h 538 539 0
h 540 541 0
h 542 543 0
h 544 545 0
h 546 547 0
h 548 549 550 551 0
h 552 553 0
h 554 555 0
h 556 557 558 559 0
h 560 561 562 0
h 563 564 565 566 0
h 567 568 569 570 0
h 571 572 0
h 573 574 575 0
h 576 577 578 579 0
h 580 581 0
h 582 583 584 585 0
h 586 587 0
h 588 589 590 591 0
h 592 593 0
h 594 595 0
h 596 597 598 0
h 599 600 601 602 0
h 603 604 0
