c Standarized MaxSat Instance
c{
c "sha1sum": "059ec3fd11d363f35ed6dc8f84328d1c4dcf5695",
c "nvars": 240,
c "ncls": 1266,
c "total_lits": 4086,
c "nhards": 1026,
c "nhard_nlits": 3846,
c "nhard_len_stats":
c    { "min": 1,
c      "max": 4,
c      "ave": 3.7485,
c      "stddev": 0.6762 },
c "nsofts": 240,
c "nsoft_nlits": 240,
c "nsoft_len_stats":
c    { "min": 1,
c      "max": 1,
c      "ave": 1.0000,
c      "stddev": 0.0000 },
c "nsoft_wts": 1,
c "soft_wt_stats":
c    { "min": 1,
c      "max": 1,
c      "ave": 1.0000,
c      "stddev": 0.0000 }
c}
c------------------------------------------------------------
c PSEUDOBOOLEAN 1266
1 1 0
1 2 0
1 3 0
1 4 0
1 5 0
1 6 0
1 7 0
1 8 0
1 9 0
1 10 0
1 11 0
1 12 0
1 13 0
1 14 0
1 15 0
1 16 0
1 17 0
1 18 0
1 19 0
1 20 0
1 21 0
1 22 0
1 23 0
1 24 0
1 25 0
1 26 0
1 27 0
1 28 0
1 29 0
1 30 0
1 31 0
1 32 0
1 33 0
1 34 0
1 35 0
1 36 0
1 37 0
1 38 0
1 39 0
1 40 0
1 41 0
1 42 0
1 43 0
1 44 0
1 45 0
1 46 0
1 47 0
1 48 0
1 49 0
1 50 0
1 51 0
1 52 0
1 53 0
1 54 0
1 55 0
1 56 0
1 57 0
1 58 0
1 59 0
1 60 0
1 61 0
1 62 0
1 63 0
1 64 0
1 65 0
1 66 0
1 67 0
1 68 0
1 69 0
1 70 0
1 71 0
1 72 0
1 73 0
1 74 0
1 75 0
1 76 0
1 77 0
1 78 0
1 79 0
1 80 0
1 81 0
1 82 0
1 83 0
1 84 0
1 85 0
1 86 0
1 87 0
1 88 0
1 89 0
1 90 0
1 91 0
1 92 0
1 93 0
1 94 0
1 95 0
1 96 0
1 97 0
1 98 0
1 99 0
1 100 0
1 101 0
1 102 0
1 103 0
1 104 0
1 105 0
1 106 0
1 107 0
1 108 0
1 109 0
1 110 0
1 111 0
1 112 0
1 113 0
1 114 0
1 115 0
1 116 0
1 117 0
1 118 0
1 119 0
1 120 0
1 121 0
1 122 0
1 123 0
1 124 0
1 125 0
1 126 0
1 127 0
1 128 0
1 129 0
1 130 0
1 131 0
1 132 0
1 133 0
1 134 0
1 135 0
1 136 0
1 137 0
1 138 0
1 139 0
1 140 0
1 141 0
1 142 0
1 143 0
1 144 0
1 145 0
1 146 0
1 147 0
1 148 0
1 149 0
1 150 0
1 151 0
1 152 0
1 153 0
1 154 0
1 155 0
1 156 0
1 157 0
1 158 0
1 159 0
1 160 0
1 161 0
1 162 0
1 163 0
1 164 0
1 165 0
1 166 0
1 167 0
1 168 0
1 169 0
1 170 0
1 171 0
1 172 0
1 173 0
1 174 0
1 175 0
1 176 0
1 177 0
1 178 0
1 179 0
1 180 0
1 181 0
1 182 0
1 183 0
1 184 0
1 185 0
1 186 0
1 187 0
1 188 0
1 189 0
1 190 0
1 191 0
1 192 0
1 193 0
1 194 0
1 195 0
1 196 0
1 197 0
1 198 0
1 199 0
1 200 0
1 201 0
1 202 0
1 203 0
1 204 0
1 205 0
1 206 0
1 207 0
1 208 0
1 209 0
1 210 0
1 211 0
1 212 0
1 213 0
1 214 0
1 215 0
1 216 0
1 217 0
1 218 0
1 219 0
1 220 0
1 221 0
1 222 0
1 223 0
1 224 0
1 225 0
1 226 0
1 227 0
1 228 0
1 229 0
1 230 0
1 231 0
1 232 0
1 233 0
1 234 0
1 235 0
1 236 0
1 237 0
1 238 0
1 239 0
1 240 0
h -194 218 -139 126 0
h -229 182 -88 130 0
h -72 -44 113 -38 0
h 163 -238 19 6 0
h 177 1 142 157 0
h 67 20 -225 -10 0
h -123 -68 -146 94 0
h -86 -187 0
h 59 -229 -88 -73 0
h 211 -199 141 -5 0
h -172 175 -8 -24 0
h -36 -46 28 -53 0
h 33 171 -161 198 0
h -167 174 95 -136 0
h 184 93 0
h 96 -212 50 106 0
h 91 132 -67 20 0
h -221 84 -12 -40 0
h 240 -79 -49 220 0
h -164 230 218 -194 0
h -37 27 23 -178 0
h 230 164 110 2 0
h 70 54 0
h -206 34 0
h 231 -52 11 65 0
h -182 130 0
h 7 -51 -162 116 0
h -64 -143 -124 -213 0
h 235 -31 180 -97 0
h 104 63 0
h -56 -191 -2 110 0
h -41 150 76 -208 0
h 214 172 186 -8 0
h -227 220 -79 -216 0
h -237 3 104 -63 0
h 146 123 125 -83 0
h 75 70 193 -54 0
h 110 -134 -144 -2 0
h -14 -152 160 -223 0
h 223 154 -62 -14 0
h 72 131 17 -113 0
h 89 26 159 148 0
h -33 -161 -207 -189 0
h -34 -147 206 165 0
h -200 -17 -185 131 0
h 85 -151 25 -48 0
h 193 66 -13 -75 0
h 168 -78 -58 128 0
h -22 -169 0
h -228 127 -224 236 0
h 113 -21 -72 202 0
h 62 39 154 119 0
h -136 174 89 159 0
h -33 -198 -161 171 0
h -223 109 14 108 0
h 85 -25 0
h 103 -93 -184 -135 0
h 226 -70 -54 -232 0
h -50 -178 37 106 0
h -116 51 167 95 0
h -59 -73 0
h -228 127 86 187 0
h -130 -215 182 155 0
h 78 -58 128 -168 0
h 119 -231 65 -39 0
h 86 187 97 -31 0
h 227 -69 216 9 0
h -96 -139 -212 -126 0
h -34 -206 153 74 0
h -128 -78 0
h 210 -196 -129 -105 0
h 74 25 153 85 0
h 197 -94 -219 -68 0
h 101 -204 -201 90 0
h 196 -129 105 210 0
h 151 -48 72 113 0
h -215 155 51 116 0
h -9 69 -207 189 0
h -159 -89 0
h 219 145 61 197 0
h -169 -181 -99 22 0
h -84 3 -221 -237 0
h 44 38 72 -113 0
h -186 -214 -170 -100 0
h -71 -213 -64 233 0
h -202 21 -158 -166 0
h 224 9 236 -69 0
h 73 59 196 -129 0
h -164 -230 0
h -36 -81 28 -114 0
h -71 -210 105 -233 0
h 38 44 170 100 0
h 146 -123 0
h -211 -5 0
h 221 48 84 151 0
h 212 -126 -96 139 0
h 231 -119 -65 39 0
h -121 -36 -28 234 0
h 206 -34 74 -153 0
h 132 -82 91 -188 0
h 80 -87 81 114 0
h 236 -9 -69 -224 0
h -24 175 -34 206 0
h -121 234 59 73 0
h 109 -129 196 -108 0
h 211 99 -5 181 0
h 100 -76 170 -208 0
h 142 -150 -41 1 0
h -207 -55 -138 189 0
h 61 188 82 145 0
h -28 -36 170 -100 0
h -222 117 95 167 0
h -194 218 215 155 0
h 3 -190 -60 237 0
h 79 -240 220 -49 0
h -134 -50 -106 -144 0
h 64 -143 -213 124 0
h 148 159 -26 -89 0
h -168 -53 58 -46 0
h -194 -104 63 218 0
h 52 -11 0
h -60 -111 190 192 0
h 205 -8 18 172 0
h 154 -62 112 47 0
h 49 240 0
h 202 21 0
h -146 -131 -17 -123 0
h -226 -232 -200 185 0
h 165 -101 201 147 0
h -183 239 203 98 0
h -74 153 0
h -141 -199 0
h 18 -88 -229 205 0
h -55 138 0
h 156 -16 240 -49 0
h -116 51 162 -7 0
h -150 -212 -41 96 0
h 151 25 -48 -85 0
h 67 -132 -20 -91 0
h -99 -181 -142 -1 0
h 113 -131 -72 -17 0
h -173 -120 -62 154 0
h -33 38 161 44 0
h 205 18 -15 107 0
h 150 -96 -41 -212 0
h -188 -82 -63 104 0
h 128 166 -78 158 0
h 219 197 -94 68 0
h 11 -133 52 -179 0
h -232 -46 53 226 0
h 40 12 0
h -104 188 -63 -82 0
h 168 58 0
h -89 159 -230 164 0
h -72 -144 113 -134 0
h -44 37 -38 178 0
h -177 30 -45 157 0
h -136 174 -10 -225 0
h -4 166 -158 32 0
h 176 209 -232 -226 0
h -68 236 -94 -224 0
h 227 -216 -49 -240 0
h -49 -199 141 240 0
h 16 -156 -59 73 0
h 108 -128 78 109 0
h -155 -215 -116 51 0
h 115 237 -140 -3 0
h 25 74 -153 -85 0
h 204 90 0
h -156 74 153 16 0
h -94 68 -76 -208 0
h -115 -196 140 -129 0
h 143 124 0
h -29 -58 118 168 0
h -26 164 -230 148 0
h 57 174 217 -136 0
h -139 32 -4 -126 0
h -75 -224 236 193 0
h -52 95 -11 167 0
h 195 -84 -137 -221 0
h -160 -78 128 -152 0
h -224 -236 75 193 0
h 7 -30 -162 -45 0
h 109 196 108 129 0
h 232 226 -46 -53 0
h 128 78 -158 166 0
h -203 -103 -135 183 0
h 87 96 -80 -212 0
h -50 -105 -106 210 0
h 144 -77 42 134 0
h -12 141 -40 199 0
h -215 -218 155 -194 0
h 62 119 -154 -39 0
h -1 -142 174 136 0
h 165 20 147 -67 0
h 78 128 -178 37 0
h 226 232 70 -54 0
h -161 -93 -33 -184 0
h -23 166 158 -27 0
h -56 191 0
h -12 40 -58 168 0
h 211 59 73 5 0
h 53 -175 -24 46 0
h -157 177 0
h 58 203 -183 -168 0
h 148 26 -13 66 0
h 110 2 -191 56 0
h -130 182 -88 229 0
h 11 -77 -42 -52 0
h 156 -73 59 -16 0
h -112 -81 -47 -114 0
h 170 -186 -100 214 0
h -64 -93 -213 -184 0
h 95 -222 -117 -167 0
h -150 -41 -208 -76 0
h 99 -181 0
h 107 239 15 -98 0
h 97 31 -180 -235 0
h -208 -110 2 -76 0
h -180 -57 -235 217 0
h 74 -156 -16 -153 0
h 3 -116 -237 51 0
h 19 10 163 -225 0
h 26 -77 -42 148 0
h -203 168 -58 183 0
h 84 -40 221 12 0
h 9 69 0
h -126 -10 225 139 0
h 72 134 113 -144 0
h 87 -209 -80 -176 0
h 215 -81 155 -114 0
h 67 -8 -20 172 0
h -204 90 219 197 0
h -141 199 40 -12 0
h 88 -18 -205 229 0
h 112 -47 62 154 0
h 61 -53 -46 145 0
h 150 -54 -41 -70 0
h -122 -102 0
h -133 -179 38 44 0
h 30 -192 111 45 0
h 175 -46 24 -53 0
h 149 -92 0
h 67 -92 -20 -149 0
h -82 188 -198 171 0
h -166 27 23 -158 0
h -89 0
h 205 -88 229 -18 0
h 166 -177 -158 157 0
h 55 -1 138 -142 0
h -6 -238 0
h -79 -220 0
h 213 92 149 -64 0
h -149 140 115 92 0
h -225 -126 -10 -139 0
h 193 75 -180 -235 0
h 25 -196 85 -129 0
h -144 -42 -77 134 0
h -197 -68 94 -219 0
h -26 0
h -46 -168 -58 53 0
h -94 -68 -208 76 0
h 211 107 -5 -15 0
h 100 -36 170 28 0
h 180 235 -193 -75 0
h 180 -235 217 57 0
h 114 -215 -81 155 0
h -206 -34 33 -161 0
h 181 -99 -142 1 0
h -156 -240 -49 -16 0
h 222 -117 -121 -234 0
h -67 20 -172 8 0
h 237 221 -3 84 0
h -55 102 -122 -138 0
h -95 -167 -229 -88 0
h 79 -220 13 66 0
h 62 -154 -223 14 0
h 77 -11 -42 -52 0
h -64 -213 -190 -60 0
h 40 -109 -108 -12 0
h 191 239 56 98 0
h -166 -128 -158 78 0
h -231 -65 0
h -29 55 -118 -138 0
h 74 -137 153 195 0
h 28 -121 -36 -234 0
h -139 96 -212 126 0
h -66 -13 -40 12 0
h 11 -95 -167 52 0
h -232 226 203 183 0
h 53 -36 -28 -46 0
h 22 -99 169 181 0
h -201 175 101 24 0
h -193 75 0
h -58 -12 -168 -40 0
h 129 196 -73 59 0
h 229 198 171 88 0
h 25 -129 -85 196 0
h 127 228 -214 -186 0
h -61 -188 -145 -82 0
h 146 123 -159 89 0
h 137 195 0
h -130 199 -141 -182 0
h -192 -143 -124 -111 0
h 37 91 178 132 0
h 194 -218 164 -230 0
h -94 123 -146 -68 0
h 203 -183 -54 70 0
h -31 -235 180 97 0
h 233 213 -64 71 0
h 37 -78 178 128 0
h 220 -79 116 -51 0
h 197 -219 -14 -223 0
h -28 84 -36 -221 0
h 173 -104 120 63 0
h -96 -212 -50 106 0
h 49 -50 -240 -106 0
h 25 -209 -85 176 0
h 169 -111 -192 22 0
h -115 -140 0
h 72 44 113 -38 0
h 147 162 -7 165 0
h 151 48 19 163 0
h -239 98 0
h 152 -160 0
h 205 -187 86 18 0
h 29 118 0
h 193 -17 131 -75 0
h -100 44 170 -38 0
h -220 -170 79 -100 0
h 183 -98 239 203 0
h 110 -2 76 208 0
h -165 206 -147 34 0
h 34 161 -33 206 0
h -96 -212 -87 -80 0
h 171 198 57 -217 0
h 108 -109 0
h -225 126 -139 10 0
h -143 181 -124 -99 0
h 89 182 130 -159 0
h -209 -39 119 -176 0
h 201 -152 -101 -160 0
h -239 -98 -56 -191 0
h -79 170 100 220 0
h -126 -218 -194 -139 0
h -140 115 129 196 0
h -137 35 -43 -195 0
h 23 -27 0
h -206 147 165 -34 0
h 209 176 -87 80 0
h -107 15 -6 238 0
h -95 167 0
h 200 185 0
h 188 62 -82 154 0
h 234 121 122 -102 0
h 75 -66 193 -13 0
h 132 -91 0
h 120 227 -216 -173 0
h -4 -32 126 -139 0
h -185 -200 -232 226 0
h -116 -51 0
h 169 -200 -185 22 0
h 55 102 122 -138 0
h -178 -37 106 50 0
h 58 -168 12 -40 0
h 212 -50 -96 -106 0
h 206 -153 -74 34 0
h 109 -4 32 -108 0
h 24 -175 0
h 31 -97 0
h 100 -170 0
h -136 1 -142 174 0
h -77 11 42 52 0
h 179 133 -11 -52 0
h -219 -197 204 -90 0
h -140 115 -92 -149 0
h 16 -156 -240 49 0
h 133 -103 179 -135 0
h 107 -18 15 205 0
h 175 -39 24 119 0
h -141 -240 49 199 0
h -152 223 -14 -160 0
h 8 -18 -205 -172 0
h 231 -81 114 65 0
h -117 -95 222 -167 0
h 237 -221 3 84 0
h -239 41 -98 150 0
h -83 -4 32 -125 0
h -213 190 -60 64 0
h -130 -155 -215 -182 0
h 103 135 31 97 0
h -124 -156 143 16 0
h -157 -177 30 45 0
h -142 150 -1 41 0
h -23 27 66 -13 0
h -2 -110 0
h 174 -217 136 57 0
h 174 136 -89 159 0
h 148 0
h 188 -198 82 -171 0
h -163 -19 180 235 0
h -145 -61 92 149 0
h -70 54 -222 117 0
h -133 -179 6 -238 0
h 177 -122 157 102 0
h -80 -87 -81 114 0
h -169 22 210 -105 0
h 113 72 131 -17 0
h -177 122 -102 -157 0
h 59 -16 73 -156 0
h -232 46 -226 53 0
h -83 125 -4 -32 0
h -134 144 0
h 225 -10 174 136 0
h 183 54 -70 -203 0
h -48 113 -151 -72 0
h -81 -36 114 -28 0
h -164 0
h 95 -52 11 -167 0
h 54 150 41 -70 0
h 65 119 231 39 0
h -33 206 -34 -161 0
h 57 -184 -217 93 0
h -192 -179 133 -111 0
h 176 39 209 -119 0
h 65 -231 11 52 0
h -147 67 -20 -165 0
h -142 1 -41 150 0
h -172 -8 67 20 0
h 217 57 -184 -93 0
h -149 -92 64 -213 0
h -66 26 -148 -13 0
h 197 -61 -219 145 0
h -9 69 90 -204 0
h -166 158 0
h -21 92 -149 -202 0
h 7 -21 162 -202 0
h 220 51 79 116 0
h -125 -42 83 77 0
h 121 36 -28 234 0
h -171 -229 -198 -88 0
h 120 -77 -42 -173 0
h -14 -169 223 22 0
h -136 217 -174 -57 0
h -157 158 166 -177 0
h 83 -125 4 32 0
h 148 -61 26 145 0
h -24 -175 39 -119 0
h -216 220 227 79 0
h 163 6 -19 238 0
h 14 223 0
h -204 -90 -69 -9 0
h 56 191 -110 2 0
h 17 -131 0
h 146 -94 68 123 0
h -214 186 0
h -151 48 0
h -159 0
h 15 -107 -98 -239 0
h -43 -35 222 -117 0
h 183 203 -54 -70 0
h -111 -22 169 192 0
h 59 -88 229 73 0
h -179 238 133 6 0
h 114 81 -155 -215 0
h 118 -105 -29 210 0
h 204 -90 -101 201 0
h -153 156 -16 -74 0
h -102 43 35 122 0
h 63 191 -104 56 0
h 198 -171 0
h -9 69 -195 137 0
h 164 35 -230 43 0
h -124 143 -99 -181 0
h 6 238 211 5 0
h -124 -147 -143 165 0
h 122 102 157 -177 0
h -61 46 53 -145 0
h -75 66 -193 13 0
h 148 230 164 26 0
h -51 -95 116 -167 0
h 203 232 -183 226 0
h -227 -9 -216 69 0
h 46 53 -28 36 0
h -3 237 -60 190 0
h 37 -178 91 -132 0
h -173 104 -63 -120 0
h -90 231 204 -65 0
h 229 73 -59 88 0
h 109 -14 -223 -108 0
h -201 -101 -204 -90 0
h 139 126 0
h 226 200 -185 232 0
h -177 -222 117 -157 0
h 47 39 112 -119 0
h 3 60 -190 -237 0
h -112 -202 -47 21 0
h 57 235 -217 180 0
h 188 62 -154 82 0
h 204 -90 -186 -214 0
h 127 236 224 228 0
h 86 -18 205 187 0
h 9 -69 -90 204 0
h -171 217 -57 -198 0
h -57 217 184 -93 0
h 41 -96 150 212 0
h 230 -35 -164 -43 0
h -97 -31 35 43 0
h 202 -21 92 149 0
h -69 9 -189 207 0
h -147 165 20 67 0
h 84 -221 -137 -195 0
h -217 -57 0
h 20 92 -149 67 0
h 107 -152 15 160 0
h -21 112 202 47 0
h -126 139 121 234 0
h 233 71 83 -125 0
h 105 210 -50 106 0
h -240 216 227 49 0
h -118 58 29 -168 0
h 107 160 -15 152 0
h 101 -201 -187 86 0
h 122 -43 102 35 0
h -38 -178 37 44 0
h 233 71 -197 -219 0
h -154 -62 0
h -202 -21 112 -47 0
h 55 -207 -138 -189 0
h -222 35 117 43 0
h -162 -7 0
h 186 214 -140 115 0
h -13 66 -12 -40 0
h -146 89 123 159 0
h 53 -61 -46 145 0
h 81 -114 0
h 225 -10 -19 -163 0
h -215 74 155 -153 0
h -218 139 -126 194 0
h -99 -6 -181 238 0
h 65 -204 -90 231 0
h 133 -38 -179 44 0
h -125 205 -18 -83 0
h -222 -177 157 -117 0
h 50 -49 240 106 0
h 188 -132 -82 91 0
h -45 30 162 7 0
h -19 -235 163 180 0
h -171 -198 161 -33 0
h -7 162 -21 202 0
h 62 -154 -112 -47 0
h -105 233 210 71 0
h 45 -30 0
h -146 -125 123 -83 0
h 5 15 107 211 0
h 79 49 -220 -240 0
h 63 188 -104 82 0
h 32 4 -109 -108 0
h -84 -48 -151 -221 0
h -167 229 -88 95 0
h 235 180 -173 -120 0
h -133 103 135 -179 0
h -141 199 -56 -191 0
h -195 137 -43 -35 0
h -71 -233 -83 125 0
h -234 121 0
h 208 140 76 -115 0
h 114 81 231 -65 0
h -69 -9 -216 227 0
h 197 -219 -204 -90 0
h -24 -34 -175 -206 0
h 13 66 -12 40 0
h 172 8 0
h 111 -190 60 -192 0
h 105 -118 -29 210 0
h -105 -210 0
h 91 -184 93 132 0
h 61 -145 0
h 120 -235 -173 180 0
h 219 -197 0
h -17 -27 -23 -131 0
h 144 134 72 -113 0
h 105 -210 106 50 0
h -49 -50 106 -240 0
h 60 213 -190 -64 0
h -90 214 -186 -204 0
h 178 -37 0
h 35 164 -43 230 0
h 83 -146 -123 -125 0
h 140 -237 -115 3 0
h -137 195 43 35 0
h 55 138 -134 -144 0
h -137 195 -29 118 0
h -42 -83 -77 -125 0
h 142 -1 0
h 200 218 -185 -194 0
h -172 -24 -175 8 0
h 32 30 4 45 0
h 97 103 -31 -135 0
h 155 130 182 215 0
h 134 -144 2 110 0
h 37 -27 -23 178 0
h 121 73 234 -59 0
h -169 22 185 -200 0
h -220 216 227 79 0
h 236 -224 7 162 0
h 94 68 0
h -6 -163 238 -19 0
h 47 -112 0
h -97 8 -31 -172 0
h -191 104 -56 -63 0
h 41 -150 0
h 5 -141 199 -211 0
h -110 230 2 -164 0
h 88 -229 0
h 82 188 -132 -91 0
h 160 -128 78 152 0
h -71 98 239 -233 0
h -132 -91 -216 -227 0
h 129 196 -85 -25 0
h 4 -32 0
h 130 -199 182 141 0
h 176 -87 -80 -209 0
h -115 140 -186 -214 0
h 11 217 -52 57 0
h 120 173 -227 -216 0
h 183 -203 -232 -226 0
h -135 -60 -190 103 0
h 233 105 210 -71 0
h 56 -191 239 -98 0
h -86 -130 -182 187 0
h 195 -69 9 -137 0
h 127 228 187 -86 0
h 240 -49 -216 -227 0
h 74 -155 -215 153 0
h -100 170 220 79 0
h -192 143 111 -124 0
h 216 -227 0
h 177 -45 157 -30 0
h -66 220 -13 -79 0
h 141 199 5 211 0
h -185 -218 -194 -200 0
h 67 10 -20 -225 0
h -218 -104 -194 -63 0
h 64 213 0
h 167 136 95 174 0
h -187 97 31 86 0
h -52 231 -65 -11 0
h 154 62 120 -173 0
h -211 238 -6 5 0
h 184 -93 -91 -132 0
h 151 48 -25 -85 0
h 109 -40 -12 -108 0
h -223 169 22 -14 0
h 10 -80 87 -225 0
h 177 -166 -158 157 0
h 166 -158 -21 -202 0
h -127 228 0
h 170 100 214 186 0
h 155 215 -74 -153 0
h -29 -118 -195 -137 0
h 154 62 -223 -14 0
h 207 189 0
h -52 57 -11 -217 0
h -70 -193 -75 54 0
h 94 208 76 -68 0
h -136 142 1 -174 0
h -142 -1 -177 -157 0
h 156 16 0
h 65 206 231 -34 0
h -135 60 -190 -103 0
h 161 -207 189 -33 0
h 20 92 149 -67 0
h 27 23 131 17 0
h 10 225 0
h 27 23 19 163 0
h -9 -207 -69 -189 0
h 124 -143 -111 192 0
h 173 -120 0
h -234 126 -139 -121 0
h -128 78 -178 -37 0
h 224 -68 94 236 0
h 69 -9 -236 -224 0
h -201 160 152 101 0
h 237 -3 -51 116 0
h -161 -33 -38 44 0
h 109 78 128 -108 0
h -133 179 0
h -147 165 -201 -101 0
h -221 40 -12 -84 0
h 201 -24 -101 -175 0
h 239 -41 -150 98 0
h 68 -185 -94 200 0
h -45 -111 30 -192 0
h -226 -70 54 -232 0
h 151 -189 -207 -48 0
h -91 -132 -37 -178 0
h 96 -212 -228 -127 0
h 219 197 -233 -71 0
h 26 145 -148 61 0
h 46 -53 0
h -148 26 -77 42 0
h -156 -143 -16 -124 0
h 38 -44 0
h 138 55 118 -29 0
h -106 50 0
h 112 122 47 -102 0
h 38 44 -178 -37 0
h 103 133 -135 -179 0
h -235 120 -180 173 0
h -132 227 -216 91 0
h -161 -184 93 33 0
h 131 17 193 75 0
h -149 92 145 -61 0
h -111 -192 -60 -190 0
h 68 -236 -94 -224 0
h 162 7 116 51 0
h -202 113 -21 72 0
h -40 12 141 -199 0
h -129 115 196 140 0
h 123 -80 -146 -87 0
h -15 -107 0
h 33 161 0
h -117 -43 -222 35 0
h 161 -93 184 -33 0
h -136 -167 -95 -174 0
h 84 151 -221 -48 0
h 105 -22 -210 169 0
h 81 112 47 114 0
h 7 -147 -162 -165 0
h -112 -47 -122 102 0
h -100 208 -170 76 0
h -189 207 -151 -48 0
h 102 -122 -35 -43 0
h 34 65 -231 206 0
h 233 71 -239 -98 0
h 1 -55 -138 142 0
h 95 229 167 88 0
h 222 -54 -117 70 0
h -163 -19 -23 -27 0
h 208 -76 0
h -108 -109 223 -14 0
h 26 89 -148 -159 0
h 16 198 -156 171 0
h 190 -60 152 160 0
h -4 -158 -32 -166 0
h 108 12 109 -40 0
h -161 207 33 -189 0
h 185 -131 -200 -17 0
h -61 -26 -145 148 0
h -31 -97 -103 -135 0
h -198 171 -16 -156 0
h -130 -182 229 88 0
h 2 -45 -110 -30 0
h -197 -61 -219 -145 0
h 83 125 0
h -126 32 139 4 0
h -121 -117 -222 234 0
h -111 192 -179 -133 0
h 29 -118 -138 -55 0
h -212 -96 -228 127 0
h 42 -77 173 120 0
h 39 -119 -62 154 0
h 156 -16 -171 -198 0
h 80 225 -87 -10 0
h -84 221 0
h -80 87 123 146 0
h 151 72 48 -113 0
h -19 -48 151 163 0
h -19 -151 -163 -48 0
h -29 209 118 176 0
h -29 -118 -209 176 0
h 17 146 123 131 0
h -84 36 -28 -221 0
h 178 -50 -106 37 0
h 48 189 -207 151 0
h 143 -64 -124 213 0
h -228 -127 -25 -85 0
h 27 23 -13 -66 0
h 35 -31 -43 97 0
h 65 -231 90 -204 0
h 230 0
h 84 221 28 -36 0
h -179 -52 11 133 0
h -59 5 -211 73 0
h -45 -30 -4 -32 0
h 21 -202 -149 -92 0
h -164 26 -148 230 0
h 183 -135 203 103 0
h 235 -180 0
h 84 -195 221 137 0
h 42 -77 125 -83 0
h 93 213 -64 -184 0
h 168 53 46 -58 0
h 216 -173 227 -120 0
h -163 19 0
h -98 233 239 -71 0
h -191 -189 -207 56 0
h 36 28 0
h 155 -51 116 215 0
h 138 -102 122 55 0
h 188 -61 -82 145 0
h -75 -131 -17 -193 0
h -18 -8 -172 205 0
h -200 -94 -68 -185 0
h 90 186 214 -204 0
h -190 160 -60 -152 0
h -200 185 94 -68 0
h -188 -82 198 171 0
h -193 224 -75 236 0
h 111 -192 -169 22 0
h 7 -162 -202 21 0
h -98 -239 183 -203 0
h 30 -45 -4 32 0
h -230 110 164 -2 0
h -195 137 -74 -153 0
h 67 91 20 -132 0
h 53 -46 -24 175 0
h 99 1 181 142 0
h -174 136 0
h -186 -172 -8 214 0
h -96 228 212 127 0
h -127 -224 -236 -228 0
h 175 -24 -101 -201 0
h -23 27 -178 37 0
h 169 -223 -22 14 0
h 25 228 85 127 0
h -152 -160 -107 15 0
h 181 6 238 -99 0
h 92 -149 -213 -64 0
h -209 226 -232 176 0
h -161 -38 33 -44 0
h 203 135 -183 103 0
h 133 179 -38 -44 0
h -210 196 105 129 0
h 194 104 -63 -218 0
h 97 172 31 -8 0
h -47 112 39 119 0
h 130 182 86 -187 0
h -112 -47 119 -39 0
h 223 -219 -197 -14 0
h 29 -195 137 -118 0
h 159 164 89 230 0
h -130 182 89 159 0
h 226 -209 -176 232 0
h 111 192 0
h 215 -155 0
h -5 6 -238 211 0
h -192 111 133 179 0
h -121 -234 59 -73 0
h 127 214 -228 -186 0
h -114 -81 87 -80 0
h -215 -155 194 -218 0
h -7 45 162 30 0
h -83 233 -125 -71 0
h -123 -146 80 -87 0
h 102 -121 122 234 0
h 124 99 -143 181 0
h -195 -137 -9 -69 0
h 32 4 166 158 0
h 175 119 -24 39 0
h 27 -23 -17 131 0
h -228 186 -127 214 0
h 135 -103 0
h 11 217 -57 52 0
h -65 231 -206 -34 0
h -187 86 -228 -127 0
h -47 112 122 102 0
h 117 234 -222 121 0
h 5 15 -211 -107 0
h -130 141 182 199 0
h -118 -210 105 29 0
h 179 238 133 -6 0
h 97 -35 -43 31 0
h -198 217 171 57 0
h 109 -32 108 -4 0
h 123 -17 -146 131 0
h 87 80 0
h 145 -149 61 -92 0
h 211 -99 5 181 0
h -104 -3 63 237 0
h -226 232 0
h -86 -101 201 187 0
h -153 -85 -74 -25 0
h 202 158 -21 166 0
h 209 -176 0
h 96 212 0
h 140 115 76 -208 0
h -184 -135 93 -103 0
h -173 -42 77 -120 0
h 115 -208 -76 -140 0
h -191 207 -56 -189 0
h 135 184 -93 103 0
h 76 208 41 150 0
h -86 187 -205 -18 0
h 140 115 214 -186 0
h 163 -19 -23 27 0
h -182 -130 -89 159 0
h -147 -143 124 -165 0
h -152 -190 60 -160 0
h -177 1 157 -142 0
h 160 14 -223 152 0
h 125 18 -83 205 0
h -237 -3 0
h 62 120 173 -154 0
h -121 -139 234 -126 0
h 85 176 209 25 0
h -168 58 78 -128 0
h -5 -73 211 59 0
h 194 185 -200 -218 0
h -168 -58 203 183 0
h -122 102 -121 -234 0
h 134 -144 -138 55 0
h -23 27 -158 166 0
h 175 24 -8 172 0
h 110 76 -208 2 0
h 163 -225 -10 -19 0
h -44 -38 -100 -170 0
h -240 -49 199 141 0
h 239 -41 150 -98 0
h -67 225 -10 20 0
h 148 -26 -42 77 0
h 13 -66 0
h 42 77 0
h -63 -191 56 -104 0
h 192 -30 -45 -111 0
h -45 2 110 30 0
h 70 -41 -150 -54 0
h 107 -238 6 -15 0
h -119 -39 0
h 86 187 182 -130 0
h 117 222 0
h -108 -196 -129 -109 0
h 227 91 132 216 0
h 134 144 -55 -138 0
h 7 162 165 -147 0
h -23 66 13 -27 0
h 78 160 128 -152 0
h -214 -172 8 -186 0
h -108 128 -78 -109 0
h -203 -183 0
h 66 79 220 -13 0
h 29 -118 -209 -176 0
h -81 65 -114 -231 0
h -148 -26 0
h 101 -147 -165 -201 0
h -22 181 169 99 0
h -18 -205 15 -107 0
h -138 1 -142 55 0
h -233 64 -213 -71 0
h -218 164 -194 230 0
h -205 18 0
h -8 97 -172 -31 0
h 222 -117 157 177 0
h 89 -159 -136 -174 0
h 193 -75 180 -235 0
h 120 -104 -173 -63 0
h -224 7 -236 -162 0
h 162 -7 236 224 0
h -118 -29 -168 -58 0
h -201 160 -101 -152 0
h -117 -54 -222 -70 0
h 119 39 176 -209 0
h 206 34 24 175 0
h 147 -165 0
h 210 105 22 169 0
h -185 -22 200 169 0
h -136 -174 10 -225 0
h 92 140 149 -115 0
h 86 -101 187 -201 0
h -62 -188 154 -82 0
h 144 50 106 134 0
h 106 134 -50 -144 0
h 51 116 95 -167 0
h 71 -233 0
h -16 156 -143 124 0
h 82 -188 0
h 229 -198 171 -88 0
h 181 -238 6 99 0
h -211 5 -99 -181 0
h 212 -96 -87 80 0
h 107 98 -15 239 0
h -219 197 -71 233 0
h 190 -60 103 135 0
h 191 141 -199 56 0
h 81 36 -28 114 0
h -184 91 -93 -132 0
h -236 224 0
h -31 -97 187 -86 0
h 17 -185 131 200 0
h 19 163 -180 -235 0
h -54 -70 -75 193 0
h -72 -113 0
h -2 110 45 30 0
h 238 15 6 107 0
h -85 127 25 -228 0
h -225 -10 -87 -80 0
h 170 -100 76 -208 0
h -191 56 141 199 0
h 230 -164 89 -159 0
h -26 13 66 148 0
h 159 -123 -146 -89 0
h 14 197 219 -223 0
h -25 -176 -209 -85 0
h 114 -81 112 -47 0
h -125 -18 83 -205 0
h 143 165 147 -124 0
h -28 -100 36 -170 0
h -116 -220 51 79 0
h 73 -196 -129 -59 0
h 3 -63 -104 237 0
h 116 51 237 3 0
h 101 201 0
h -189 138 207 55 0
h 60 190 0
h -67 -20 0
h 184 -93 64 -213 0
h -202 21 -113 72 0
h -207 191 189 56 0
h -35 43 0
h 218 194 0
h -42 -144 77 -134 0
h 115 140 3 237 0
h -110 134 144 2 0
h -196 129 0
h 74 -153 -137 -195 0
